%!PS-Adobe-3.0 EPSF-3.0
%%Creator: cairo 1.11.2 (http://cairographics.org)
%%CreationDate: Fri Jan 30 18:31:45 2015
%%Pages: 1
%%DocumentData: Clean7Bit
%%LanguageLevel: 2
%%BoundingBox: 0 -1 388 101
%%EndComments
%%BeginProlog
/cairo_eps_state save def
/dict_count countdictstack def
/op_count count 1 sub def
userdict begin
/q { gsave } bind def
/Q { grestore } bind def
/cm { 6 array astore concat } bind def
/w { setlinewidth } bind def
/J { setlinecap } bind def
/j { setlinejoin } bind def
/M { setmiterlimit } bind def
/d { setdash } bind def
/m { moveto } bind def
/l { lineto } bind def
/c { curveto } bind def
/h { closepath } bind def
/re { exch dup neg 3 1 roll 5 3 roll moveto 0 rlineto
      0 exch rlineto 0 rlineto closepath } bind def
/S { stroke } bind def
/f { fill } bind def
/f* { eofill } bind def
/n { newpath } bind def
/W { clip } bind def
/W* { eoclip } bind def
/BT { } bind def
/ET { } bind def
/pdfmark where { pop globaldict /?pdfmark /exec load put }
    { globaldict begin /?pdfmark /pop load def /pdfmark
    /cleartomark load def end } ifelse
/BDC { mark 3 1 roll /BDC pdfmark } bind def
/EMC { mark /EMC pdfmark } bind def
/cairo_store_point { /cairo_point_y exch def /cairo_point_x exch def } def
/Tj { show currentpoint cairo_store_point } bind def
/TJ {
  {
    dup
    type /stringtype eq
    { show } { -0.001 mul 0 cairo_font_matrix dtransform rmoveto } ifelse
  } forall
  currentpoint cairo_store_point
} bind def
/cairo_selectfont { cairo_font_matrix aload pop pop pop 0 0 6 array astore
    cairo_font exch selectfont cairo_point_x cairo_point_y moveto } bind def
/Tf { pop /cairo_font exch def /cairo_font_matrix where
      { pop cairo_selectfont } if } bind def
/Td { matrix translate cairo_font_matrix matrix concatmatrix dup
      /cairo_font_matrix exch def dup 4 get exch 5 get cairo_store_point
      /cairo_font where { pop cairo_selectfont } if } bind def
/Tm { 2 copy 8 2 roll 6 array astore /cairo_font_matrix exch def
      cairo_store_point /cairo_font where { pop cairo_selectfont } if } bind def
/g { setgray } bind def
/rg { setrgbcolor } bind def
/d1 { setcachedevice } bind def
%%EndProlog
%%Page: 1 1
%%BeginPageSetup
%%PageBoundingBox: 0 -1 388 101
%%EndPageSetup
q 0 -1 388 102 rectclip q
0 100.818 388 -101 re W n
0 g
0.8 w
1 J
1 j
[] 0.0 d
4 M q 1 0 0 -1 0 100.818176 cm
0.402 0.406 m 24.402 0.406 l 32.402 12.406 l 24.402 24.406 l 0.402 24.406
 l h
S Q
1 g
152.402 88.412 m 152.402 81.783 147.027 76.412 140.402 76.412 c 133.773
 76.412 128.402 81.783 128.402 88.412 c 128.402 95.037 133.773 100.412 140.402
 100.412 c 147.027 100.412 152.402 95.037 152.402 88.412 c h
f
0 g
q 1 0 0 -1 0 100.818176 cm
152.402 12.406 m 152.402 19.035 147.027 24.406 140.402 24.406 c 133.773
 24.406 128.402 19.035 128.402 12.406 c 128.402 5.781 133.773 0.406 140.402
 0.406 c 147.027 0.406 152.402 5.781 152.402 12.406 c h
S Q
0 j
q 1 0 0 -1 0 100.818176 cm
138 20.406 m 142.801 20.406 l S Q
q 1 0 0 -1 0 100.818176 cm
132.402 10.008 m 132.402 14.809 l S Q
q 1 0 0 -1 0 100.818176 cm
130 12.406 m 134.801 12.406 l S Q
1 j
q 1 0 0 -1 0 100.818176 cm
48.402 24.406 m 48.402 0.406 l 72.402 12.406 l h
S Q
53.215 86.81 m 51.504 89.553 l 52.957 91.002 l 52.102 91.002 l 50.328 89.224
 l 50.328 92.642 l 49.664 92.642 l 49.664 86.81 l 50.328 86.81 l 50.328 
88.443 l 50.977 89.084 l 52.391 86.81 l h
f
55.836 86.982 m 55.836 87.619 55.734 88.099 55.531 88.42 c 55.328 88.736
 55.027 88.892 54.629 88.896 c 54.23 88.888 53.93 88.728 53.727 88.416 c
 53.523 88.096 53.422 87.631 53.422 87.013 c 53.422 86.388 53.523 85.916
 53.73 85.603 c 53.93 85.287 54.23 85.135 54.629 85.131 c 55.02 85.138 55.316
 85.291 55.523 85.603 c 55.727 85.912 55.832 86.373 55.836 86.982 c h
55.367 87.025 m 55.367 86.502 55.305 86.115 55.184 85.873 c 55.059 85.623
 54.871 85.502 54.617 85.51 c 54.375 85.506 54.191 85.631 54.07 85.881 c
 53.949 86.127 53.891 86.502 53.891 87.01 c 53.891 87.51 53.949 87.885 54.074
 88.127 c 54.191 88.369 54.379 88.49 54.629 88.49 c 54.875 88.49 55.059 
88.369 55.184 88.127 c 55.305 87.885 55.367 87.517 55.367 87.025 c h
f
58.367 92.642 m 57.926 92.642 l 56.031 86.65 l 56.469 86.65 l h
62.328 86.81 m 60.617 89.553 l 62.07 91.002 l 61.215 91.002 l 59.441 89.224
 l 59.441 92.642 l 58.777 92.642 l 58.777 86.81 l 59.441 86.81 l 59.441 
88.443 l 60.09 89.084 l 61.504 86.81 l h
f
64.117 85.209 m 64.117 88.896 l 63.816 88.896 l 63.766 88.705 63.711 88.564
 63.648 88.471 c 63.586 88.373 63.492 88.303 63.375 88.263 c 63.25 88.217
 63.074 88.185 62.844 88.162 c 62.844 87.834 l 63.66 87.834 l 63.66 85.209
 l h
f
0 j
q 1 0 0 -1 0 100.818176 cm
88.402 0.406 m 88.402 24.406 l 112.402 24.406 l 112.402 0.406 l h
S Q
1 j
q 1 0 0 -1 0 100.818176 cm
92.402 20.406 m 97.199 20.406 l 103.602 4.406 l 108.402 4.406 l S Q
0.4 w
0 j
q 1 0 0 -1 0 100.818176 cm
100.402 4.406 m 100.402 20.406 l S Q
q 1 0 0 -1 0 100.818176 cm
92.402 12.406 m 108.402 12.406 l S Q
1 g
272.402 88.412 m 272.402 81.783 267.027 76.412 260.402 76.412 c 253.773
 76.412 248.402 81.783 248.402 88.412 c 248.402 95.037 253.773 100.412 260.402
 100.412 c 267.027 100.412 272.402 95.037 272.402 88.412 c h
f
0 g
0.8 w
1 j
q 1 0 0 -1 0 100.818176 cm
272.402 12.406 m 272.402 19.035 267.027 24.406 260.402 24.406 c 253.773
 24.406 248.402 19.035 248.402 12.406 c 248.402 5.781 253.773 0.406 260.402
 0.406 c 267.027 0.406 272.402 5.781 272.402 12.406 c h
S Q
0 j
q 1 0 0 -1 0 100.818176 cm
258 20.406 m 262.801 20.406 l S Q
q 1 0 0 -1 0 100.818176 cm
252.402 10.008 m 252.402 14.809 l S Q
q 1 0 0 -1 0 100.818176 cm
250 12.406 m 254.801 12.406 l S Q
1 j
q 1 0 0 -1 0 100.818176 cm
168.402 24.406 m 168.402 0.406 l 192.402 12.406 l h
S Q
173.215 86.81 m 171.504 89.553 l 172.957 91.002 l 172.102 91.002 l 170.328
 89.224 l 170.328 92.642 l 169.664 92.642 l 169.664 86.81 l 170.328 86.81
 l 170.328 88.443 l 170.977 89.084 l 172.391 86.81 l h
f
175.004 85.209 m 175.004 88.896 l 174.703 88.896 l 174.652 88.705 174.598
 88.564 174.535 88.471 c 174.473 88.373 174.379 88.303 174.262 88.263 c 
174.137 88.217 173.961 88.185 173.73 88.162 c 173.73 87.834 l 174.547 87.834
 l 174.547 85.209 l h
f
178.367 92.642 m 177.926 92.642 l 176.031 86.65 l 176.469 86.65 l h
182.328 86.81 m 180.617 89.553 l 182.07 91.002 l 181.215 91.002 l 179.441
 89.224 l 179.441 92.642 l 178.777 92.642 l 178.777 86.81 l 179.441 86.81
 l 179.441 88.443 l 180.09 89.084 l 181.504 86.81 l h
f
184.969 87.814 m 184.961 88.131 184.852 88.388 184.641 88.588 c 184.422
 88.783 184.141 88.885 183.789 88.896 c 183.41 88.896 183.113 88.795 182.906
 88.592 c 182.695 88.381 182.586 88.056 182.574 87.615 c 183.031 87.615 
l 183.047 87.92 183.117 88.142 183.246 88.287 c 183.367 88.424 183.543 88.494
 183.773 88.494 c 183.984 88.49 184.16 88.424 184.293 88.299 c 184.426 88.166
 184.496 88.002 184.504 87.803 c 184.5 87.654 184.457 87.521 184.375 87.4
 c 184.289 87.275 184.164 87.166 184.004 87.076 c 183.523 86.806 l 183.27
 86.662 183.07 86.517 182.922 86.377 c 182.773 86.228 182.668 86.064 182.605
 85.885 c 182.539 85.697 182.5 85.474 182.488 85.209 c 184.945 85.209 l 
184.945 85.662 l 183.004 85.662 l 183.023 85.803 183.082 85.935 183.184 
86.053 c 183.281 86.17 183.445 86.291 183.672 86.42 c 184.191 86.701 l 184.445
 86.838 184.641 87.002 184.773 87.189 c 184.902 87.377 184.965 87.584 184.969
 87.814 c h
f
0 j
q 1 0 0 -1 0 100.818176 cm
208.402 0.406 m 208.402 24.406 l 232.402 24.406 l 232.402 0.406 l h
S Q
1 j
q 1 0 0 -1 0 100.818176 cm
212.402 20.406 m 217.199 20.406 l 223.602 4.406 l 228.402 4.406 l S Q
0.4 w
0 j
q 1 0 0 -1 0 100.818176 cm
220.402 4.406 m 220.402 20.406 l S Q
q 1 0 0 -1 0 100.818176 cm
212.402 12.406 m 228.402 12.406 l S Q
0.8 w
1 j
q 1 0 0 -1 0 100.818176 cm
288.402 24.406 m 288.402 0.406 l 312.402 12.406 l h
S Q
296.418 86.81 m 294.707 89.553 l 296.16 91.002 l 295.305 91.002 l 293.531
 89.224 l 293.531 92.642 l 292.867 92.642 l 292.867 86.81 l 293.531 86.81
 l 293.531 88.443 l 294.18 89.084 l 295.594 86.81 l h
f
299.035 86.279 m 299.031 86.502 298.984 86.681 298.887 86.822 c 298.785
 86.955 298.625 87.06 298.41 87.138 c 298.578 87.201 298.707 87.299 298.797
 87.424 c 298.879 87.545 298.922 87.697 298.926 87.881 c 298.918 88.201 
298.816 88.447 298.625 88.627 c 298.426 88.799 298.152 88.888 297.801 88.896
 c 297.426 88.892 297.141 88.795 296.949 88.596 c 296.754 88.392 296.656
 88.096 296.648 87.705 c 297.105 87.705 l 297.109 87.974 297.168 88.174 
297.285 88.303 c 297.398 88.431 297.574 88.494 297.809 88.494 c 298.012 
88.49 298.168 88.435 298.281 88.326 c 298.395 88.217 298.453 88.06 298.457
 87.865 c 298.461 87.666 298.402 87.525 298.277 87.439 c 298.152 87.349 
297.91 87.306 297.551 87.31 c 297.551 86.924 l 297.801 86.924 l 298.051 
86.92 298.242 86.861 298.371 86.752 c 298.5 86.635 298.563 86.478 298.566
 86.275 c 298.559 86.041 298.492 85.857 298.363 85.728 c 298.227 85.599 
298.039 85.537 297.801 85.537 c 297.551 85.533 297.363 85.596 297.238 85.724
 c 297.109 85.853 297.039 86.053 297.027 86.322 c 296.57 86.322 l 296.598
 85.912 296.711 85.607 296.914 85.416 c 297.113 85.221 297.406 85.131 297.785
 85.131 c 298.168 85.138 298.469 85.24 298.695 85.443 c 298.914 85.646 299.027
 85.924 299.035 86.279 c h
f
0 j
q 1 0 0 -1 0 100.818176 cm
328.402 0.406 m 328.402 24.406 l 352.402 24.406 l 352.402 0.406 l h
S Q
1 j
q 1 0 0 -1 0 100.818176 cm
332.402 20.406 m 337.199 20.406 l 343.602 4.406 l 348.402 4.406 l S Q
0.4 w
0 j
q 1 0 0 -1 0 100.818176 cm
340.402 4.406 m 340.402 20.406 l S Q
q 1 0 0 -1 0 100.818176 cm
332.402 12.406 m 348.402 12.406 l S Q
0.8 w
1 j
q 1 0 0 -1 0 100.818176 cm
232.402 76.406 m 232.402 100.406 l 208.402 100.406 l 208.402 76.406 l h
S Q
q 1 0 0 -1 0 100.818176 cm
216.402 96.406 m 224.402 99.609 216.402 77.207 224.402 80.406 c S Q
q 1 0 0 -1 0 100.818176 cm
96.402 96.406 m 104.402 99.609 96.402 77.207 104.402 80.406 c S Q
q 1 0 0 -1 0 100.818176 cm
112.402 76.406 m 112.402 100.406 l 88.402 100.406 l 88.402 76.406 l h
S Q
q 1 0 0 -1 0 100.818176 cm
352.402 76.406 m 352.402 100.406 l 328.402 100.406 l 328.402 76.406 l h
S Q
q 1 0 0 -1 0 100.818176 cm
336.402 96.406 m 344.402 99.609 336.402 77.207 344.402 80.406 c S Q
q 1 0 0 -1 0 100.818176 cm
280.402 40.406 m 280.402 64.406 l 240.402 64.406 l 240.402 40.406 l h
S Q
q 1 0 0 -1 0 100.818176 cm
246.801 47.301 m 255.602 47.301 l 259.602 47.301 259.602 47.301 262.801
 46.5 c 270.563 44.559 274 58.5 274 58.5 c S Q
44.488 14.553 m 44.488 20.385 l 43.457 20.385 l 41.762 15.306 l 40.035 
20.385 l 39.004 20.385 l 39.004 14.553 l 39.707 14.553 l 39.707 19.439 l
 41.363 14.553 l 42.145 14.553 l 43.785 19.439 l 43.785 14.553 l h
49.34 14.568 m 49.34 15.072 l 49.301 15.06 49.273 15.056 49.254 15.056 
c 49.23 15.056 49.211 15.056 49.195 15.056 c 49.078 15.056 48.988 15.084
 48.926 15.142 c 48.863 15.197 48.832 15.279 48.836 15.385 c 48.836 17.721
 l 48.832 18.092 48.699 18.373 48.434 18.568 c 48.168 18.76 47.773 18.861
 47.258 18.865 c 46.742 18.865 46.34 18.756 46.051 18.545 c 45.754 18.326
 45.598 17.982 45.578 17.506 c 46.25 17.506 l 46.273 17.76 46.367 17.947
 46.527 18.068 c 46.688 18.189 46.922 18.248 47.234 18.248 c 47.531 18.244
 47.762 18.189 47.926 18.088 c 48.082 17.978 48.164 17.826 48.172 17.627
 c 48.172 17.447 l 48.172 17.306 48.121 17.201 48.02 17.135 c 47.91 17.06
 47.73 17.01 47.477 16.986 c 47.164 16.943 46.926 16.912 46.762 16.888 c
 46.594 16.861 46.469 16.838 46.383 16.814 c 46.293 16.791 46.207 16.76 
46.129 16.728 c 45.883 16.623 45.699 16.482 45.578 16.299 c 45.453 16.115
 45.391 15.892 45.395 15.638 c 45.395 15.252 45.52 14.955 45.766 14.748 
c 46.004 14.537 46.34 14.435 46.77 14.431 c 47.039 14.435 47.297 14.486 
47.543 14.592 c 47.789 14.697 48.004 14.849 48.195 15.049 c 48.23 14.881
 48.313 14.748 48.441 14.65 c 48.566 14.553 48.715 14.506 48.883 14.498 
c 48.945 14.502 49.012 14.506 49.078 14.513 c 49.145 14.525 49.23 14.541
 49.34 14.568 c h
48.172 16.002 m 48.156 15.693 48.027 15.455 47.785 15.283 c 47.535 15.107
 47.246 15.017 46.914 15.017 c 46.652 15.01 46.449 15.06 46.309 15.166 c
 46.16 15.263 46.09 15.428 46.09 15.658 c 46.086 15.873 46.164 16.037 46.324
 16.15 c 46.484 16.26 46.742 16.342 47.098 16.392 c 47.328 16.424 47.508
 16.447 47.641 16.471 c 47.77 16.49 47.871 16.513 47.949 16.537 c 48.023
 16.556 48.098 16.584 48.172 16.623 c h
53.473 14.553 m 53.473 20.385 l 52.809 20.385 l 52.809 18.217 l 52.664 
18.428 52.484 18.592 52.27 18.701 c 52.047 18.81 51.797 18.865 51.52 18.865
 c 50.965 18.857 50.527 18.658 50.211 18.275 c 49.887 17.888 49.723 17.361
 49.719 16.689 c 49.719 15.974 49.883 15.42 50.207 15.029 c 50.523 14.638
 50.969 14.443 51.543 14.431 c 51.828 14.435 52.078 14.49 52.293 14.607 
c 52.504 14.721 52.699 14.908 52.879 15.17 c 52.879 14.553 l h
52.809 16.631 m 52.801 16.142 52.695 15.76 52.488 15.482 c 52.277 15.201
 51.992 15.06 51.641 15.056 c 51.262 15.06 50.965 15.201 50.75 15.486 c 
50.527 15.763 50.418 16.154 50.414 16.65 c 50.418 17.142 50.527 17.529 50.75
 17.81 c 50.965 18.092 51.262 18.232 51.633 18.24 c 51.996 18.232 52.281
 18.088 52.488 17.799 c 52.695 17.51 52.801 17.119 52.809 16.631 c h
57.875 15.24 m 57.875 18.744 l 57.262 18.744 l 57.262 18.138 l 57.094 18.381
 56.906 18.56 56.695 18.685 c 56.484 18.803 56.246 18.865 55.98 18.865 c
 55.441 18.853 55.012 18.646 54.691 18.244 c 54.371 17.842 54.207 17.295
 54.199 16.607 c 54.207 15.939 54.371 15.412 54.691 15.025 c 55.012 14.638
 55.422 14.443 55.926 14.431 c 56.18 14.435 56.414 14.494 56.625 14.611 
c 56.832 14.728 57.043 14.92 57.262 15.185 c 57.262 14.904 l 57.258 14.357
 57.148 13.963 56.938 13.721 c 56.719 13.482 56.418 13.365 56.027 13.369
 c 55.758 13.369 55.531 13.424 55.352 13.529 c 55.168 13.642 55.055 13.822
 55.012 14.072 c 54.332 14.072 l 54.367 13.674 54.531 13.365 54.824 13.146
 c 55.113 12.928 55.508 12.818 56.004 12.81 c 56.441 12.81 56.797 12.881
 57.074 13.029 c 57.348 13.181 57.551 13.435 57.684 13.791 c 57.813 14.146
 57.875 14.627 57.875 15.24 c h
57.199 16.623 m 57.191 16.115 57.086 15.728 56.891 15.459 c 56.688 15.185
 56.414 15.049 56.063 15.049 c 55.695 15.049 55.406 15.189 55.203 15.467
 c 54.996 15.74 54.895 16.135 54.891 16.65 c 54.895 17.158 54.996 17.549
 55.203 17.826 c 55.406 18.103 55.691 18.244 56.055 18.248 c 56.414 18.244
 56.695 18.099 56.895 17.818 c 57.09 17.529 57.191 17.131 57.199 16.623 
c h
64.082 18.744 m 63.328 18.744 l 62.496 15.482 l 61.676 18.744 l 60.859 
18.744 l 60.059 15.482 l 59.203 18.744 l 58.465 18.744 l 59.684 14.553 l
 60.434 14.553 l 61.242 17.842 l 62.09 14.553 l 62.852 14.553 l h
65.422 14.553 m 65.422 18.744 l 64.758 18.744 l 64.758 14.553 l h
65.512 19.377 m 65.512 20.209 l 64.68 20.209 l 64.68 19.377 l h
69.797 15.994 m 69.125 15.994 l 69.066 15.658 68.953 15.416 68.781 15.267
 c 68.609 15.119 68.383 15.045 68.102 15.049 c 67.727 15.049 67.438 15.185
 67.234 15.455 c 67.031 15.724 66.926 16.107 66.926 16.607 c 66.926 17.135
 67.027 17.541 67.23 17.822 c 67.43 18.103 67.715 18.244 68.082 18.248 c
 68.363 18.244 68.59 18.166 68.762 18.01 c 68.93 17.853 69.035 17.627 69.074
 17.338 c 69.746 17.338 l 69.699 17.846 69.531 18.228 69.238 18.482 c 68.945
 18.736 68.563 18.865 68.094 18.865 c 67.52 18.857 67.066 18.654 66.734 
18.256 c 66.402 17.857 66.234 17.306 66.23 16.607 c 66.234 15.924 66.402
 15.392 66.73 15.013 c 67.059 14.635 67.508 14.443 68.082 14.431 c 68.586
 14.439 68.988 14.576 69.285 14.849 c 69.582 15.123 69.75 15.506 69.797 
15.994 c h
f
48.699 8.201 m 48.699 8.744 l 48.004 8.744 l 48.004 9.4 l 48 9.537 48.039
 9.642 48.121 9.717 c 48.195 9.787 48.313 9.826 48.469 9.826 c 48.488 9.826
 48.516 9.822 48.547 9.822 c 48.574 9.818 48.625 9.818 48.699 9.818 c 48.699
 10.369 l 48.625 10.381 48.559 10.392 48.504 10.4 c 48.445 10.404 48.387
 10.404 48.324 10.408 c 48.012 10.4 47.77 10.318 47.602 10.154 c 47.426 
9.99 47.34 9.756 47.34 9.455 c 47.34 8.744 l 46.781 8.744 l 46.781 8.201
 l 47.34 8.201 l 47.34 4.553 l 48.004 4.553 l 48.004 8.201 l h
50.078 4.553 m 50.078 8.744 l 49.414 8.744 l 49.414 4.553 l h
50.168 9.377 m 50.168 10.209 l 49.336 10.209 l 49.336 9.377 l h
51.844 4.553 m 51.844 10.385 l 51.18 10.385 l 51.18 4.553 l h
54.449 4.553 m 54.449 5.111 l 54.402 5.096 54.355 5.088 54.305 5.088 c 
54.25 5.08 54.191 5.08 54.129 5.08 c 53.988 5.076 53.891 5.099 53.836 5.158
 c 53.781 5.209 53.754 5.31 53.762 5.455 c 53.762 8.201 l 54.449 8.201 l
 54.449 8.744 l 53.762 8.744 l 53.762 9.896 l 53.098 9.896 l 53.098 8.744
 l 52.531 8.744 l 52.531 8.201 l 53.098 8.201 l 53.098 5.162 l 53.098 4.947
 53.168 4.783 53.309 4.67 c 53.445 4.556 53.645 4.502 53.906 4.498 c 53.984
 4.502 54.066 4.506 54.152 4.513 c 54.238 4.525 54.336 4.537 54.449 4.553
 c h
58.738 6.459 m 58.738 6.756 58.723 7.01 58.699 7.221 c 58.668 7.424 58.629
 7.603 58.574 7.76 c 58.434 8.103 58.215 8.377 57.918 8.572 c 57.621 8.763
 57.273 8.861 56.879 8.865 c 56.285 8.857 55.82 8.654 55.48 8.26 c 55.137
 7.861 54.961 7.314 54.957 6.623 c 54.961 5.928 55.129 5.392 55.465 5.01
 c 55.797 4.631 56.262 4.439 56.859 4.431 c 57.34 4.439 57.738 4.564 58.051
 4.81 c 58.359 5.056 58.559 5.392 58.652 5.826 c 57.98 5.826 l 57.887 5.545
 57.75 5.346 57.566 5.228 c 57.379 5.103 57.152 5.045 56.887 5.049 c 56.527
 5.045 56.234 5.158 56.012 5.392 c 55.785 5.619 55.664 5.974 55.652 6.459
 c h
58.027 7.049 m 58.027 7.045 58.027 7.037 58.027 7.029 c 58.023 7.017 58.02
 7.01 58.02 7.002 c 55.668 7.002 l 55.699 7.377 55.82 7.678 56.039 7.904
 c 56.25 8.127 56.527 8.24 56.871 8.248 c 57.199 8.236 57.477 8.119 57.695
 7.892 c 57.91 7.666 58.02 7.385 58.027 7.049 c h
61.656 8.162 m 61.656 8.842 l 61.602 8.849 61.555 8.853 61.52 8.857 c 61.48
 8.861 61.441 8.865 61.402 8.865 c 61.188 8.865 60.988 8.795 60.809 8.658
 c 60.625 8.513 60.441 8.291 60.258 7.986 c 60.258 8.744 l 59.648 8.744 
l 59.648 4.553 l 60.313 4.553 l 60.313 6.728 l 60.301 7.197 60.395 7.553
 60.598 7.791 c 60.793 8.029 61.148 8.154 61.656 8.162 c h
f
q 1 0 0 -1 0 100.818176 cm
72.402 76.406 m 72.402 100.406 l 36.402 100.406 l 36.402 76.406 l h
S Q
72.402 88.412 m 80.402 88.412 l 80.402 92.412 l 88.402 88.412 l 80.402 
84.412 l 80.402 88.412 l f
1.6 w
q 1 0 0 -1 0 100.818176 cm
72.402 12.406 m 80.402 12.406 l 80.402 8.406 l 88.402 12.406 l 80.402 16.406
 l 80.402 12.406 l S Q
112.402 88.412 m 120.402 88.412 l 120.402 92.412 l 128.402 88.412 l 120.402
 84.412 l 120.402 88.412 l f
q 1 0 0 -1 0 100.818176 cm
112.402 12.406 m 120.402 12.406 l 120.402 8.406 l 128.402 12.406 l 120.402
 16.406 l 120.402 12.406 l S Q
152.402 88.412 m 160.402 88.412 l 160.402 92.412 l 168.402 88.412 l 160.402
 84.412 l 160.402 88.412 l f
q 1 0 0 -1 0 100.818176 cm
152.402 12.406 m 160.402 12.406 l 160.402 8.406 l 168.402 12.406 l 160.402
 16.406 l 160.402 12.406 l S Q
192.402 88.412 m 200.402 88.412 l 200.402 92.412 l 208.402 88.412 l 200.402
 84.412 l 200.402 88.412 l f
q 1 0 0 -1 0 100.818176 cm
192.402 12.406 m 200.402 12.406 l 200.402 8.406 l 208.402 12.406 l 200.402
 16.406 l 200.402 12.406 l S Q
232.402 88.412 m 240.402 88.412 l 240.402 92.412 l 248.402 88.412 l 240.402
 84.412 l 240.402 88.412 l f
q 1 0 0 -1 0 100.818176 cm
232.402 12.406 m 240.402 12.406 l 240.402 8.406 l 248.402 12.406 l 240.402
 16.406 l 240.402 12.406 l S Q
272.402 88.412 m 280.402 88.412 l 280.402 92.412 l 288.402 88.412 l 280.402
 84.412 l 280.402 88.412 l f
q 1 0 0 -1 0 100.818176 cm
272.402 12.406 m 280.402 12.406 l 280.402 8.406 l 288.402 12.406 l 280.402
 16.406 l 280.402 12.406 l S Q
312.402 88.412 m 320.402 88.412 l 320.402 92.412 l 328.402 88.412 l 320.402
 84.412 l 320.402 88.412 l f
q 1 0 0 -1 0 100.818176 cm
312.402 12.406 m 320.402 12.406 l 320.402 8.406 l 328.402 12.406 l 320.402
 16.406 l 320.402 12.406 l S Q
328.402 12.412 m 240.402 12.412 l 240.402 16.412 l 232.402 12.412 l 240.402
 8.412 l 240.402 12.412 l f
q 1 0 0 -1 0 100.818176 cm
328.402 88.406 m 240.402 88.406 l 240.402 84.406 l 232.402 88.406 l 240.402
 92.406 l 240.402 88.406 l S Q
88.402 12.412 m 80.402 12.412 l 80.402 16.412 l 72.402 12.412 l 80.402 
8.412 l 80.402 12.412 l f
q 1 0 0 -1 0 100.818176 cm
88.402 88.406 m 80.402 88.406 l 80.402 84.406 l 72.402 88.406 l 80.402 
92.406 l 80.402 88.406 l S Q
260.402 60.412 m 260.402 68.412 l 264.402 68.412 l 260.402 76.412 l 256.402
 68.412 l 260.402 68.412 l f
q 1 0 0 -1 0 100.818176 cm
260.402 40.406 m 260.402 32.406 l 264.402 32.406 l 260.402 24.406 l 256.402
 32.406 l 260.402 32.406 l S Q
0.8 w
q 1 0 0 -1 0 100.818176 cm
160.402 40.406 m 160.402 64.406 l 120.402 64.406 l 120.402 40.406 l h
S Q
q 1 0 0 -1 0 100.818176 cm
126.801 47.301 m 135.602 47.301 l 139.602 47.301 139.602 47.301 142.801
 46.5 c 150.563 44.559 154 58.5 154 58.5 c S Q
140.402 60.412 m 140.402 68.412 l 144.402 68.412 l 140.402 76.412 l 136.402
 68.412 l 140.402 68.412 l f
1.6 w
q 1 0 0 -1 0 100.818176 cm
140.402 40.406 m 140.402 32.406 l 144.402 32.406 l 140.402 24.406 l 136.402
 32.406 l 140.402 32.406 l S Q
208.402 12.412 m 120.402 12.412 l 120.402 16.412 l 112.402 12.412 l 120.402
 8.412 l 120.402 12.412 l f
q 1 0 0 -1 0 100.818176 cm
208.402 88.406 m 120.402 88.406 l 120.402 84.406 l 112.402 88.406 l 120.402
 92.406 l 120.402 88.406 l S Q
140.402 12.412 m 140.402 28.412 l 144.402 28.412 l 140.402 36.412 l 136.402
 28.412 l 140.402 28.412 l f
q 1 0 0 -1 0 100.818176 cm
140.402 88.406 m 140.402 72.406 l 144.402 72.406 l 140.402 64.406 l 136.402
 72.406 l 140.402 72.406 l S Q
260.402 12.412 m 260.402 28.412 l 264.402 28.412 l 260.402 36.412 l 256.402
 28.412 l 260.402 28.412 l f
q 1 0 0 -1 0 100.818176 cm
260.402 88.406 m 260.402 72.406 l 264.402 72.406 l 260.402 64.406 l 256.402
 72.406 l 260.402 72.406 l S Q
368.402 12.412 m 360.402 12.412 l 360.402 16.412 l 352.402 12.412 l 360.402
 8.412 l 360.402 12.412 l f
q 1 0 0 -1 0 100.818176 cm
368.402 88.406 m 360.402 88.406 l 360.402 84.406 l 352.402 88.406 l 360.402
 92.406 l 360.402 88.406 l S Q
q 1 0 0 -1 0 100.818176 cm
352.402 12.406 m 368.402 12.406 l 368.402 88.406 l S Q
32.402 88.412 m 40.402 88.412 l 40.402 92.412 l 48.402 88.412 l 40.402 
84.412 l 40.402 88.412 l f
q 1 0 0 -1 0 100.818176 cm
32.402 12.406 m 40.402 12.406 l 40.402 8.406 l 48.402 12.406 l 40.402 16.406
 l 40.402 12.406 l S Q
[ 1.6 3.2] 0 d
q 1 0 0 -1 0 100.818176 cm
12.402 88.406 m 12.402 32.406 l 16.402 32.406 l 12.402 24.406 l 8.402 32.406
 l 12.402 32.406 l S Q
[ 1.6 3.2] 0 d
q 1 0 0 -1 0 100.818176 cm
36.402 88.406 m 12.402 88.406 l S Q
14.18 85.494 m 11.727 91.15 l 10.691 91.15 l 8.238 85.494 l h
12.469 86.615 m 9.949 86.615 l 11.215 89.517 l h
18.16 88.166 m 18.16 88.685 18.105 89.181 17.992 89.654 c 17.879 90.127
 17.691 90.513 17.43 90.822 c 17.168 91.123 16.816 91.283 16.379 91.295 
c 15.938 91.283 15.59 91.123 15.328 90.822 c 15.066 90.513 14.879 90.127
 14.766 89.654 c 14.652 89.181 14.598 88.685 14.602 88.166 c 14.602 87.713
 14.668 87.287 14.801 86.888 c 14.934 86.49 15.129 86.162 15.395 85.912 
c 15.652 85.658 15.98 85.529 16.379 85.525 c 16.77 85.529 17.098 85.658 
17.363 85.912 c 17.625 86.162 17.824 86.49 17.961 86.888 c 18.09 87.287 
18.156 87.713 18.16 88.166 c h
17.043 88.623 m 15.723 88.623 l 15.723 88.92 15.742 89.201 15.773 89.467
 c 15.805 89.732 15.867 89.947 15.961 90.119 c 16.055 90.283 16.191 90.373
 16.379 90.381 c 16.559 90.373 16.699 90.283 16.797 90.119 c 16.887 89.947
 16.949 89.732 16.984 89.467 c 17.016 89.201 17.035 88.92 17.043 88.623 
c h
17.031 87.709 m 17.027 87.369 16.984 87.072 16.898 86.826 c 16.813 86.576
 16.637 86.447 16.379 86.439 c 16.113 86.447 15.941 86.576 15.859 86.826
 c 15.77 87.072 15.727 87.369 15.73 87.709 c h
f
274.129 64.701 m 273.969 64.943 273.84 65.205 273.738 65.482 c 273.633 
65.752 273.539 66.029 273.457 66.314 c 273.563 66.674 273.652 67.037 273.73
 67.408 c 273.801 67.775 273.934 68.123 274.129 68.443 c 273.242 69.021 
l 273.117 68.83 273.02 68.631 272.953 68.424 c 272.879 68.213 272.824 67.998
 272.785 67.779 c 272.59 68.053 272.355 68.275 272.09 68.443 c 271.82 68.607
 271.52 68.693 271.188 68.701 c 270.75 68.693 270.363 68.584 270.02 68.373
 c 269.672 68.162 269.395 67.877 269.195 67.521 c 268.988 67.162 268.887
 66.767 268.883 66.334 c 268.887 65.951 268.996 65.619 269.211 65.342 c 
269.426 65.056 269.707 64.838 270.055 64.681 c 270.402 64.525 270.777 64.443
 271.188 64.443 c 271.496 64.443 271.789 64.51 272.059 64.642 c 272.328 
64.767 272.566 64.947 272.777 65.174 c 272.848 64.963 272.922 64.763 273.004
 64.58 c 273.078 64.396 273.16 64.248 273.242 64.123 c h
272.41 66.342 m 272.293 66.06 272.129 65.83 271.922 65.646 c 271.715 65.459
 271.469 65.361 271.188 65.357 c 270.863 65.357 270.59 65.447 270.363 65.623
 c 270.133 65.799 270.012 66.037 270 66.334 c 270.004 66.724 270.113 67.06
 270.324 67.342 c 270.535 67.623 270.82 67.771 271.188 67.787 c 271.414 
67.779 271.605 67.705 271.762 67.568 c 271.914 67.428 272.043 67.248 272.148
 67.033 c 272.246 66.81 272.336 66.58 272.41 66.342 c h
f
154.234 66.818 m 154.227 67.174 154.152 67.517 154.008 67.846 c 153.859
 68.17 153.664 68.463 153.418 68.732 c 152.434 68.732 l 152.672 68.467 152.844
 68.17 152.953 67.842 c 153.059 67.506 153.113 67.166 153.113 66.818 c 153.117
 66.588 153.109 66.361 153.098 66.138 c 153.078 65.916 153.035 65.732 152.969
 65.584 c 152.895 65.435 152.777 65.357 152.617 65.357 c 152.453 65.361 
152.34 65.467 152.27 65.666 c 152.199 65.865 152.156 66.111 152.141 66.408
 c 152.125 66.701 152.117 66.994 152.121 67.291 c 151.004 67.291 l 151.004
 67.08 151.012 66.877 151.027 66.674 c 151.043 66.467 151.07 66.267 151.113
 66.076 c 151.082 65.865 151.02 65.693 150.926 65.56 c 150.828 65.428 150.688
 65.357 150.5 65.357 c 150.336 65.357 150.219 65.435 150.148 65.584 c 150.078
 65.732 150.035 65.916 150.02 66.138 c 150.004 66.361 149.996 66.588 150
 66.818 c 149.996 67.166 150.051 67.506 150.16 67.842 c 150.27 68.17 150.441
 68.467 150.684 68.732 c 149.699 68.732 l 149.449 68.463 149.254 68.17 149.105
 67.846 c 148.957 67.517 148.883 67.174 148.883 66.818 c 148.883 66.408 
148.941 66.025 149.063 65.67 c 149.184 65.306 149.363 65.013 149.605 64.791
 c 149.84 64.564 150.141 64.447 150.5 64.443 c 150.727 64.443 150.922 64.498
 151.094 64.607 c 151.258 64.713 151.402 64.861 151.523 65.045 c 151.648
 64.857 151.801 64.709 151.984 64.603 c 152.164 64.498 152.375 64.443 152.617
 64.443 c 152.969 64.447 153.27 64.564 153.512 64.791 c 153.75 65.013 153.93
 65.306 154.051 65.67 c 154.172 66.025 154.23 66.408 154.234 66.818 c h
f
366.73 90.717 m 366.371 91.299 366.102 91.904 365.918 92.549 c 365.727 
93.189 365.633 93.834 365.633 94.482 c 365.633 95.123 365.727 95.767 365.918
 96.412 c 366.102 97.056 366.371 97.666 366.73 98.244 c 366.289 98.244 l
 365.883 97.705 365.563 97.103 365.336 96.439 c 365.102 95.771 364.988 95.119
 364.988 94.482 c 364.988 93.834 365.102 93.181 365.336 92.517 c 365.563
 91.853 365.883 91.256 366.289 90.717 c h
370.914 92.412 m 370.914 96.603 l 370.25 96.603 l 370.25 94.291 l 370.246
 93.857 370.145 93.513 369.941 93.263 c 369.738 93.006 369.457 92.877 369.105
 92.877 c 368.836 92.877 368.629 92.951 368.477 93.099 c 368.32 93.24 368.242
 93.443 368.242 93.701 c 368.242 96.603 l 367.578 96.603 l 367.578 93.435
 l 367.582 93.08 367.703 92.803 367.941 92.603 c 368.176 92.4 368.5 92.299
 368.914 92.291 c 369.215 92.291 369.477 92.346 369.699 92.467 c 369.914
 92.584 370.121 92.783 370.316 93.06 c 370.316 92.412 l h
f
373.973 90.81 m 373.031 92.221 l 373.945 93.533 l 373.457 93.533 l 372.801
 92.549 l 372.145 93.533 l 371.652 93.533 l 372.563 92.197 l 371.602 90.81
 l 372.094 90.81 l 372.785 91.857 l 373.469 90.81 l h
f
375.645 92.283 m 375.645 93.244 l 374.805 93.244 l 374.805 92.412 l 375.285
 92.412 l 375.285 92.267 l 375.285 91.998 375.25 91.81 375.184 91.705 c 
375.113 91.599 374.988 91.545 374.805 91.541 c 374.805 91.236 l 375.082 
91.24 375.293 91.33 375.434 91.502 c 375.574 91.681 375.645 91.939 375.645
 92.283 c h
382.402 92.412 m 382.402 96.603 l 381.738 96.603 l 381.738 94.291 l 381.734
 93.857 381.633 93.513 381.43 93.263 c 381.227 93.006 380.945 92.877 380.594
 92.877 c 380.324 92.877 380.117 92.951 379.965 93.099 c 379.809 93.24 379.73
 93.443 379.73 93.701 c 379.73 96.603 l 379.066 96.603 l 379.066 93.435 
l 379.07 93.08 379.191 92.803 379.43 92.603 c 379.664 92.4 379.988 92.299
 380.402 92.291 c 380.703 92.291 380.965 92.346 381.188 92.467 c 381.402
 92.584 381.609 92.783 381.805 93.06 c 381.805 92.412 l h
f
385.484 93.533 m 385.02 93.533 l 384.262 91.412 l 383.566 93.533 l 383.105
 93.533 l 384.023 90.799 l 383.859 90.369 l 383.82 90.275 383.777 90.205
 383.727 90.162 c 383.672 90.123 383.598 90.103 383.508 90.103 c 383.477
 90.107 383.441 90.111 383.406 90.111 c 383.367 90.119 383.328 90.127 383.281
 90.135 c 383.281 89.744 l 383.324 89.721 383.367 89.705 383.418 89.693 
c 383.461 89.685 383.512 89.681 383.57 89.678 c 383.723 89.681 383.863 89.724
 383.984 89.814 c 384.102 89.904 384.195 90.045 384.273 90.236 c h
f
387.648 94.474 m 387.641 95.119 387.523 95.771 387.297 96.439 c 387.063
 97.103 386.746 97.705 386.348 98.244 c 385.906 98.244 l 386.258 97.662 
386.527 97.053 386.719 96.408 c 386.902 95.763 386.996 95.119 387.004 94.474
 c 386.996 93.834 386.902 93.189 386.719 92.545 c 386.527 91.9 386.258 91.295
 385.906 90.717 c 386.348 90.717 l 386.746 91.256 387.063 91.853 387.297
 92.517 c 387.523 93.181 387.641 93.834 387.648 94.474 c h
f
Q Q
showpage
%%Trailer
count op_count sub {pop} repeat
countdictstack dict_count sub {end} repeat
cairo_eps_state restore
%%EOF
