%!PS-Adobe-3.0 EPSF-3.0
%%Creator: cairo 1.11.2 (http://cairographics.org)
%%CreationDate: Fri Jan 30 18:34:46 2015
%%Pages: 1
%%DocumentData: Clean7Bit
%%LanguageLevel: 2
%%BoundingBox: 0 -1 444 141
%%EndComments
%%BeginProlog
/cairo_eps_state save def
/dict_count countdictstack def
/op_count count 1 sub def
userdict begin
/q { gsave } bind def
/Q { grestore } bind def
/cm { 6 array astore concat } bind def
/w { setlinewidth } bind def
/J { setlinecap } bind def
/j { setlinejoin } bind def
/M { setmiterlimit } bind def
/d { setdash } bind def
/m { moveto } bind def
/l { lineto } bind def
/c { curveto } bind def
/h { closepath } bind def
/re { exch dup neg 3 1 roll 5 3 roll moveto 0 rlineto
      0 exch rlineto 0 rlineto closepath } bind def
/S { stroke } bind def
/f { fill } bind def
/f* { eofill } bind def
/n { newpath } bind def
/W { clip } bind def
/W* { eoclip } bind def
/BT { } bind def
/ET { } bind def
/pdfmark where { pop globaldict /?pdfmark /exec load put }
    { globaldict begin /?pdfmark /pop load def /pdfmark
    /cleartomark load def end } ifelse
/BDC { mark 3 1 roll /BDC pdfmark } bind def
/EMC { mark /EMC pdfmark } bind def
/cairo_store_point { /cairo_point_y exch def /cairo_point_x exch def } def
/Tj { show currentpoint cairo_store_point } bind def
/TJ {
  {
    dup
    type /stringtype eq
    { show } { -0.001 mul 0 cairo_font_matrix dtransform rmoveto } ifelse
  } forall
  currentpoint cairo_store_point
} bind def
/cairo_selectfont { cairo_font_matrix aload pop pop pop 0 0 6 array astore
    cairo_font exch selectfont cairo_point_x cairo_point_y moveto } bind def
/Tf { pop /cairo_font exch def /cairo_font_matrix where
      { pop cairo_selectfont } if } bind def
/Td { matrix translate cairo_font_matrix matrix concatmatrix dup
      /cairo_font_matrix exch def dup 4 get exch 5 get cairo_store_point
      /cairo_font where { pop cairo_selectfont } if } bind def
/Tm { 2 copy 8 2 roll 6 array astore /cairo_font_matrix exch def
      cairo_store_point /cairo_font where { pop cairo_selectfont } if } bind def
/g { setgray } bind def
/rg { setrgbcolor } bind def
/d1 { setcachedevice } bind def
%%EndProlog
%%Page: 1 1
%%BeginPageSetup
%%PageBoundingBox: 0 -1 444 141
%%EndPageSetup
q 0 -1 444 142 rectclip q
0 140.818 444 -141 re W n
0 g
0.8 w
1 J
1 j
[] 0.0 d
4 M q 1 0 0 -1 0 140.818192 cm
0.402 0.406 m 24.402 0.406 l 32.402 12.406 l 24.402 24.406 l 0.402 24.406
 l h
S Q
1 g
152.402 128.412 m 152.402 121.783 147.027 116.412 140.402 116.412 c 133.773
 116.412 128.402 121.783 128.402 128.412 c 128.402 135.037 133.773 140.412
 140.402 140.412 c 147.027 140.412 152.402 135.037 152.402 128.412 c h
f
0 g
q 1 0 0 -1 0 140.818192 cm
152.402 12.406 m 152.402 19.035 147.027 24.406 140.402 24.406 c 133.773
 24.406 128.402 19.035 128.402 12.406 c 128.402 5.781 133.773 0.406 140.402
 0.406 c 147.027 0.406 152.402 5.781 152.402 12.406 c h
S Q
0 j
q 1 0 0 -1 0 140.818192 cm
138 20.406 m 142.801 20.406 l S Q
q 1 0 0 -1 0 140.818192 cm
132.402 10.008 m 132.402 14.809 l S Q
q 1 0 0 -1 0 140.818192 cm
130 12.406 m 134.801 12.406 l S Q
1 j
q 1 0 0 -1 0 140.818192 cm
48.402 24.406 m 48.402 0.406 l 72.402 12.406 l h
S Q
53.215 126.81 m 51.504 129.553 l 52.957 131.002 l 52.102 131.002 l 50.328
 129.224 l 50.328 132.642 l 49.664 132.642 l 49.664 126.81 l 50.328 126.81
 l 50.328 128.443 l 50.977 129.084 l 52.391 126.81 l h
f
55.836 126.982 m 55.836 127.619 55.734 128.099 55.531 128.42 c 55.328 128.736
 55.027 128.892 54.629 128.896 c 54.23 128.889 53.93 128.728 53.727 128.416
 c 53.523 128.096 53.422 127.631 53.422 127.014 c 53.422 126.389 53.523 
125.916 53.73 125.603 c 53.93 125.287 54.23 125.135 54.629 125.131 c 55.02
 125.139 55.316 125.291 55.523 125.603 c 55.727 125.912 55.832 126.373 55.836
 126.982 c h
55.367 127.025 m 55.367 126.502 55.305 126.115 55.184 125.873 c 55.059 
125.623 54.871 125.502 54.617 125.51 c 54.375 125.506 54.191 125.631 54.07
 125.881 c 53.949 126.127 53.891 126.502 53.891 127.01 c 53.891 127.51 53.949
 127.885 54.074 128.127 c 54.191 128.369 54.379 128.49 54.629 128.49 c 54.875
 128.49 55.059 128.369 55.184 128.127 c 55.305 127.885 55.367 127.517 55.367
 127.025 c h
f
58.367 132.642 m 57.926 132.642 l 56.031 126.65 l 56.469 126.65 l h
62.328 126.81 m 60.617 129.553 l 62.07 131.002 l 61.215 131.002 l 59.441
 129.224 l 59.441 132.642 l 58.777 132.642 l 58.777 126.81 l 59.441 126.81
 l 59.441 128.443 l 60.09 129.084 l 61.504 126.81 l h
f
64.117 125.209 m 64.117 128.896 l 63.816 128.896 l 63.766 128.705 63.711
 128.564 63.648 128.471 c 63.586 128.373 63.492 128.303 63.375 128.264 c
 63.25 128.217 63.074 128.185 62.844 128.162 c 62.844 127.834 l 63.66 127.834
 l 63.66 125.209 l h
f
0 j
q 1 0 0 -1 0 140.818192 cm
88.402 0.406 m 88.402 24.406 l 112.402 24.406 l 112.402 0.406 l h
S Q
1 j
q 1 0 0 -1 0 140.818192 cm
92.402 20.406 m 97.199 20.406 l 103.602 4.406 l 108.402 4.406 l S Q
0.4 w
0 j
q 1 0 0 -1 0 140.818192 cm
100.402 4.406 m 100.402 20.406 l S Q
q 1 0 0 -1 0 140.818192 cm
92.402 12.406 m 108.402 12.406 l S Q
1 g
272.402 128.412 m 272.402 121.783 267.027 116.412 260.402 116.412 c 253.773
 116.412 248.402 121.783 248.402 128.412 c 248.402 135.037 253.773 140.412
 260.402 140.412 c 267.027 140.412 272.402 135.037 272.402 128.412 c h
f
0 g
0.8 w
1 j
q 1 0 0 -1 0 140.818192 cm
272.402 12.406 m 272.402 19.035 267.027 24.406 260.402 24.406 c 253.773
 24.406 248.402 19.035 248.402 12.406 c 248.402 5.781 253.773 0.406 260.402
 0.406 c 267.027 0.406 272.402 5.781 272.402 12.406 c h
S Q
0 j
q 1 0 0 -1 0 140.818192 cm
258 20.406 m 262.801 20.406 l S Q
q 1 0 0 -1 0 140.818192 cm
252.402 10.008 m 252.402 14.809 l S Q
q 1 0 0 -1 0 140.818192 cm
250 12.406 m 254.801 12.406 l S Q
1 j
q 1 0 0 -1 0 140.818192 cm
168.402 24.406 m 168.402 0.406 l 192.402 12.406 l h
S Q
173.215 126.81 m 171.504 129.553 l 172.957 131.002 l 172.102 131.002 l 
170.328 129.224 l 170.328 132.642 l 169.664 132.642 l 169.664 126.81 l 170.328
 126.81 l 170.328 128.443 l 170.977 129.084 l 172.391 126.81 l h
f
175.004 125.209 m 175.004 128.896 l 174.703 128.896 l 174.652 128.705 174.598
 128.564 174.535 128.471 c 174.473 128.373 174.379 128.303 174.262 128.264
 c 174.137 128.217 173.961 128.185 173.73 128.162 c 173.73 127.834 l 174.547
 127.834 l 174.547 125.209 l h
f
178.367 132.642 m 177.926 132.642 l 176.031 126.65 l 176.469 126.65 l h
182.328 126.81 m 180.617 129.553 l 182.07 131.002 l 181.215 131.002 l 179.441
 129.224 l 179.441 132.642 l 178.777 132.642 l 178.777 126.81 l 179.441 
126.81 l 179.441 128.443 l 180.09 129.084 l 181.504 126.81 l h
f
184.969 127.814 m 184.961 128.131 184.852 128.389 184.641 128.588 c 184.422
 128.783 184.141 128.885 183.789 128.896 c 183.41 128.896 183.113 128.795
 182.906 128.592 c 182.695 128.381 182.586 128.056 182.574 127.615 c 183.031
 127.615 l 183.047 127.92 183.117 128.142 183.246 128.287 c 183.367 128.424
 183.543 128.494 183.773 128.494 c 183.984 128.49 184.16 128.424 184.293
 128.299 c 184.426 128.166 184.496 128.002 184.504 127.803 c 184.5 127.654
 184.457 127.521 184.375 127.4 c 184.289 127.275 184.164 127.166 184.004
 127.076 c 183.523 126.806 l 183.27 126.662 183.07 126.517 182.922 126.377
 c 182.773 126.228 182.668 126.064 182.605 125.885 c 182.539 125.697 182.5
 125.474 182.488 125.209 c 184.945 125.209 l 184.945 125.662 l 183.004 125.662
 l 183.023 125.803 183.082 125.935 183.184 126.053 c 183.281 126.17 183.445
 126.291 183.672 126.42 c 184.191 126.701 l 184.445 126.838 184.641 127.002
 184.773 127.189 c 184.902 127.377 184.965 127.584 184.969 127.814 c h
f
0 j
q 1 0 0 -1 0 140.818192 cm
208.402 0.406 m 208.402 24.406 l 232.402 24.406 l 232.402 0.406 l h
S Q
1 j
q 1 0 0 -1 0 140.818192 cm
212.402 20.406 m 217.199 20.406 l 223.602 4.406 l 228.402 4.406 l S Q
0.4 w
0 j
q 1 0 0 -1 0 140.818192 cm
220.402 4.406 m 220.402 20.406 l S Q
q 1 0 0 -1 0 140.818192 cm
212.402 12.406 m 228.402 12.406 l S Q
0.8 w
1 j
q 1 0 0 -1 0 140.818192 cm
288.402 24.406 m 288.402 0.406 l 312.402 12.406 l h
S Q
296.313 127.498 m 296.313 131.002 l 295.699 131.002 l 295.699 130.396 l
 295.531 130.639 295.344 130.818 295.133 130.943 c 294.922 131.06 294.684
 131.123 294.418 131.123 c 293.879 131.111 293.449 130.904 293.129 130.502
 c 292.809 130.099 292.645 129.553 292.637 128.865 c 292.645 128.197 292.809
 127.67 293.129 127.283 c 293.449 126.896 293.859 126.701 294.363 126.689
 c 294.617 126.693 294.852 126.752 295.063 126.869 c 295.27 126.986 295.48
 127.178 295.699 127.443 c 295.699 127.162 l 295.695 126.615 295.586 126.221
 295.375 125.978 c 295.156 125.74 294.855 125.623 294.465 125.627 c 294.195
 125.627 293.969 125.681 293.789 125.787 c 293.605 125.9 293.492 126.08 
293.449 126.33 c 292.77 126.33 l 292.805 125.931 292.969 125.623 293.262
 125.404 c 293.551 125.185 293.945 125.076 294.441 125.068 c 294.879 125.068
 295.234 125.139 295.512 125.287 c 295.785 125.439 295.988 125.693 296.121
 126.049 c 296.25 126.404 296.313 126.885 296.313 127.498 c h
295.637 128.881 m 295.629 128.373 295.523 127.986 295.328 127.717 c 295.125
 127.443 294.852 127.306 294.5 127.306 c 294.133 127.306 293.844 127.447
 293.641 127.724 c 293.434 127.998 293.332 128.392 293.328 128.908 c 293.332
 129.416 293.434 129.806 293.641 130.084 c 293.844 130.361 294.129 130.502
 294.492 130.506 c 294.852 130.502 295.133 130.357 295.332 130.076 c 295.527
 129.787 295.629 129.389 295.637 128.881 c h
f
298.66 125.209 m 298.66 128.896 l 298.359 128.896 l 298.309 128.705 298.254
 128.564 298.191 128.471 c 298.129 128.373 298.035 128.303 297.918 128.264
 c 297.793 128.217 297.617 128.185 297.387 128.162 c 297.387 127.834 l 298.203
 127.834 l 298.203 125.209 l h
f
0 j
q 1 0 0 -1 0 140.818192 cm
384.402 0.406 m 384.402 24.406 l 408.402 24.406 l 408.402 0.406 l h
S Q
1 j
q 1 0 0 -1 0 140.818192 cm
388.402 20.406 m 393.199 20.406 l 399.602 4.406 l 404.402 4.406 l S Q
0.4 w
0 j
q 1 0 0 -1 0 140.818192 cm
396.402 4.406 m 396.402 20.406 l S Q
q 1 0 0 -1 0 140.818192 cm
388.402 12.406 m 404.402 12.406 l S Q
0.8 w
1 j
q 1 0 0 -1 0 140.818192 cm
232.402 116.406 m 232.402 140.406 l 208.402 140.406 l 208.402 116.406 l
 h
S Q
q 1 0 0 -1 0 140.818192 cm
216.402 136.406 m 224.402 139.609 216.402 117.207 224.402 120.406 c S Q
q 1 0 0 -1 0 140.818192 cm
96.402 136.406 m 104.402 139.609 96.402 117.207 104.402 120.406 c S Q
q 1 0 0 -1 0 140.818192 cm
112.402 116.406 m 112.402 140.406 l 88.402 140.406 l 88.402 116.406 l h
S Q
q 1 0 0 -1 0 140.818192 cm
328.402 116.406 m 328.402 140.406 l 304.402 140.406 l 304.402 116.406 l
 h
S Q
q 1 0 0 -1 0 140.818192 cm
312.402 136.406 m 320.402 139.609 312.402 117.207 320.402 120.406 c S Q
q 1 0 0 -1 0 140.818192 cm
280.402 80.406 m 280.402 104.406 l 240.402 104.406 l 240.402 80.406 l h
S Q
q 1 0 0 -1 0 140.818192 cm
246.801 87.301 m 255.602 87.301 l 259.602 87.301 259.602 87.301 262.801
 86.5 c 270.563 84.559 274 98.5 274 98.5 c S Q
44.488 14.553 m 44.488 20.385 l 43.457 20.385 l 41.762 15.306 l 40.035 
20.385 l 39.004 20.385 l 39.004 14.553 l 39.707 14.553 l 39.707 19.439 l
 41.363 14.553 l 42.145 14.553 l 43.785 19.439 l 43.785 14.553 l h
49.34 14.568 m 49.34 15.072 l 49.301 15.06 49.273 15.056 49.254 15.056 
c 49.23 15.056 49.211 15.056 49.195 15.056 c 49.078 15.056 48.988 15.084
 48.926 15.142 c 48.863 15.197 48.832 15.279 48.836 15.385 c 48.836 17.721
 l 48.832 18.092 48.699 18.373 48.434 18.568 c 48.168 18.76 47.773 18.861
 47.258 18.865 c 46.742 18.865 46.34 18.756 46.051 18.545 c 45.754 18.326
 45.598 17.982 45.578 17.506 c 46.25 17.506 l 46.273 17.76 46.367 17.947
 46.527 18.068 c 46.688 18.189 46.922 18.248 47.234 18.248 c 47.531 18.244
 47.762 18.189 47.926 18.088 c 48.082 17.978 48.164 17.826 48.172 17.627
 c 48.172 17.447 l 48.172 17.306 48.121 17.201 48.02 17.135 c 47.91 17.06
 47.73 17.01 47.477 16.986 c 47.164 16.943 46.926 16.912 46.762 16.889 c
 46.594 16.861 46.469 16.838 46.383 16.814 c 46.293 16.791 46.207 16.76 
46.129 16.728 c 45.883 16.623 45.699 16.482 45.578 16.299 c 45.453 16.115
 45.391 15.892 45.395 15.639 c 45.395 15.252 45.52 14.955 45.766 14.748 
c 46.004 14.537 46.34 14.435 46.77 14.431 c 47.039 14.435 47.297 14.486 
47.543 14.592 c 47.789 14.697 48.004 14.849 48.195 15.049 c 48.23 14.881
 48.313 14.748 48.441 14.65 c 48.566 14.553 48.715 14.506 48.883 14.498 
c 48.945 14.502 49.012 14.506 49.078 14.514 c 49.145 14.525 49.23 14.541
 49.34 14.568 c h
48.172 16.002 m 48.156 15.693 48.027 15.455 47.785 15.283 c 47.535 15.107
 47.246 15.017 46.914 15.017 c 46.652 15.01 46.449 15.06 46.309 15.166 c
 46.16 15.264 46.09 15.428 46.09 15.658 c 46.086 15.873 46.164 16.037 46.324
 16.15 c 46.484 16.26 46.742 16.342 47.098 16.392 c 47.328 16.424 47.508
 16.447 47.641 16.471 c 47.77 16.49 47.871 16.514 47.949 16.537 c 48.023
 16.556 48.098 16.584 48.172 16.623 c h
53.473 14.553 m 53.473 20.385 l 52.809 20.385 l 52.809 18.217 l 52.664 
18.428 52.484 18.592 52.27 18.701 c 52.047 18.81 51.797 18.865 51.52 18.865
 c 50.965 18.857 50.527 18.658 50.211 18.275 c 49.887 17.889 49.723 17.361
 49.719 16.689 c 49.719 15.974 49.883 15.42 50.207 15.029 c 50.523 14.639
 50.969 14.443 51.543 14.431 c 51.828 14.435 52.078 14.49 52.293 14.607 
c 52.504 14.721 52.699 14.908 52.879 15.17 c 52.879 14.553 l h
52.809 16.631 m 52.801 16.142 52.695 15.76 52.488 15.482 c 52.277 15.201
 51.992 15.06 51.641 15.056 c 51.262 15.06 50.965 15.201 50.75 15.486 c 
50.527 15.764 50.418 16.154 50.414 16.65 c 50.418 17.142 50.527 17.529 50.75
 17.81 c 50.965 18.092 51.262 18.232 51.633 18.24 c 51.996 18.232 52.281
 18.088 52.488 17.799 c 52.695 17.51 52.801 17.119 52.809 16.631 c h
57.875 15.24 m 57.875 18.744 l 57.262 18.744 l 57.262 18.139 l 57.094 18.381
 56.906 18.56 56.695 18.685 c 56.484 18.803 56.246 18.865 55.98 18.865 c
 55.441 18.853 55.012 18.646 54.691 18.244 c 54.371 17.842 54.207 17.295
 54.199 16.607 c 54.207 15.939 54.371 15.412 54.691 15.025 c 55.012 14.639
 55.422 14.443 55.926 14.431 c 56.18 14.435 56.414 14.494 56.625 14.611 
c 56.832 14.728 57.043 14.92 57.262 15.185 c 57.262 14.904 l 57.258 14.357
 57.148 13.963 56.938 13.721 c 56.719 13.482 56.418 13.365 56.027 13.369
 c 55.758 13.369 55.531 13.424 55.352 13.529 c 55.168 13.642 55.055 13.822
 55.012 14.072 c 54.332 14.072 l 54.367 13.674 54.531 13.365 54.824 13.146
 c 55.113 12.928 55.508 12.818 56.004 12.81 c 56.441 12.81 56.797 12.881
 57.074 13.029 c 57.348 13.181 57.551 13.435 57.684 13.791 c 57.813 14.146
 57.875 14.627 57.875 15.24 c h
57.199 16.623 m 57.191 16.115 57.086 15.728 56.891 15.459 c 56.688 15.185
 56.414 15.049 56.063 15.049 c 55.695 15.049 55.406 15.189 55.203 15.467
 c 54.996 15.74 54.895 16.135 54.891 16.65 c 54.895 17.158 54.996 17.549
 55.203 17.826 c 55.406 18.103 55.691 18.244 56.055 18.248 c 56.414 18.244
 56.695 18.099 56.895 17.818 c 57.09 17.529 57.191 17.131 57.199 16.623 
c h
64.082 18.744 m 63.328 18.744 l 62.496 15.482 l 61.676 18.744 l 60.859 
18.744 l 60.059 15.482 l 59.203 18.744 l 58.465 18.744 l 59.684 14.553 l
 60.434 14.553 l 61.242 17.842 l 62.09 14.553 l 62.852 14.553 l h
65.422 14.553 m 65.422 18.744 l 64.758 18.744 l 64.758 14.553 l h
65.512 19.377 m 65.512 20.209 l 64.68 20.209 l 64.68 19.377 l h
69.797 15.994 m 69.125 15.994 l 69.066 15.658 68.953 15.416 68.781 15.267
 c 68.609 15.119 68.383 15.045 68.102 15.049 c 67.727 15.049 67.438 15.185
 67.234 15.455 c 67.031 15.724 66.926 16.107 66.926 16.607 c 66.926 17.135
 67.027 17.541 67.23 17.822 c 67.43 18.103 67.715 18.244 68.082 18.248 c
 68.363 18.244 68.59 18.166 68.762 18.01 c 68.93 17.853 69.035 17.627 69.074
 17.338 c 69.746 17.338 l 69.699 17.846 69.531 18.228 69.238 18.482 c 68.945
 18.736 68.563 18.865 68.094 18.865 c 67.52 18.857 67.066 18.654 66.734 
18.256 c 66.402 17.857 66.234 17.306 66.23 16.607 c 66.234 15.924 66.402
 15.392 66.73 15.014 c 67.059 14.635 67.508 14.443 68.082 14.431 c 68.586
 14.439 68.988 14.576 69.285 14.849 c 69.582 15.123 69.75 15.506 69.797 
15.994 c h
f
48.699 8.201 m 48.699 8.744 l 48.004 8.744 l 48.004 9.4 l 48 9.537 48.039
 9.642 48.121 9.717 c 48.195 9.787 48.313 9.826 48.469 9.826 c 48.488 9.826
 48.516 9.822 48.547 9.822 c 48.574 9.818 48.625 9.818 48.699 9.818 c 48.699
 10.369 l 48.625 10.381 48.559 10.392 48.504 10.4 c 48.445 10.404 48.387
 10.404 48.324 10.408 c 48.012 10.4 47.77 10.318 47.602 10.154 c 47.426 
9.99 47.34 9.756 47.34 9.455 c 47.34 8.744 l 46.781 8.744 l 46.781 8.201
 l 47.34 8.201 l 47.34 4.553 l 48.004 4.553 l 48.004 8.201 l h
50.078 4.553 m 50.078 8.744 l 49.414 8.744 l 49.414 4.553 l h
50.168 9.377 m 50.168 10.209 l 49.336 10.209 l 49.336 9.377 l h
51.844 4.553 m 51.844 10.385 l 51.18 10.385 l 51.18 4.553 l h
54.449 4.553 m 54.449 5.111 l 54.402 5.096 54.355 5.088 54.305 5.088 c 
54.25 5.08 54.191 5.08 54.129 5.08 c 53.988 5.076 53.891 5.099 53.836 5.158
 c 53.781 5.209 53.754 5.31 53.762 5.455 c 53.762 8.201 l 54.449 8.201 l
 54.449 8.744 l 53.762 8.744 l 53.762 9.896 l 53.098 9.896 l 53.098 8.744
 l 52.531 8.744 l 52.531 8.201 l 53.098 8.201 l 53.098 5.162 l 53.098 4.947
 53.168 4.783 53.309 4.67 c 53.445 4.556 53.645 4.502 53.906 4.498 c 53.984
 4.502 54.066 4.506 54.152 4.514 c 54.238 4.525 54.336 4.537 54.449 4.553
 c h
58.738 6.459 m 58.738 6.756 58.723 7.01 58.699 7.221 c 58.668 7.424 58.629
 7.603 58.574 7.76 c 58.434 8.103 58.215 8.377 57.918 8.572 c 57.621 8.764
 57.273 8.861 56.879 8.865 c 56.285 8.857 55.82 8.654 55.48 8.26 c 55.137
 7.861 54.961 7.314 54.957 6.623 c 54.961 5.928 55.129 5.392 55.465 5.01
 c 55.797 4.631 56.262 4.439 56.859 4.431 c 57.34 4.439 57.738 4.564 58.051
 4.81 c 58.359 5.056 58.559 5.392 58.652 5.826 c 57.98 5.826 l 57.887 5.545
 57.75 5.346 57.566 5.228 c 57.379 5.103 57.152 5.045 56.887 5.049 c 56.527
 5.045 56.234 5.158 56.012 5.392 c 55.785 5.619 55.664 5.974 55.652 6.459
 c h
58.027 7.049 m 58.027 7.045 58.027 7.037 58.027 7.029 c 58.023 7.017 58.02
 7.01 58.02 7.002 c 55.668 7.002 l 55.699 7.377 55.82 7.678 56.039 7.904
 c 56.25 8.127 56.527 8.24 56.871 8.248 c 57.199 8.236 57.477 8.119 57.695
 7.892 c 57.91 7.666 58.02 7.385 58.027 7.049 c h
61.656 8.162 m 61.656 8.842 l 61.602 8.849 61.555 8.853 61.52 8.857 c 61.48
 8.861 61.441 8.865 61.402 8.865 c 61.188 8.865 60.988 8.795 60.809 8.658
 c 60.625 8.514 60.441 8.291 60.258 7.986 c 60.258 8.744 l 59.648 8.744 
l 59.648 4.553 l 60.313 4.553 l 60.313 6.728 l 60.301 7.197 60.395 7.553
 60.598 7.791 c 60.793 8.029 61.148 8.154 61.656 8.162 c h
f
q 1 0 0 -1 0 140.818192 cm
72.402 116.406 m 72.402 140.406 l 36.402 140.406 l 36.402 116.406 l h
S Q
72.402 128.412 m 80.402 128.412 l 80.402 132.412 l 88.402 128.412 l 80.402
 124.412 l 80.402 128.412 l f
1.6 w
q 1 0 0 -1 0 140.818192 cm
72.402 12.406 m 80.402 12.406 l 80.402 8.406 l 88.402 12.406 l 80.402 16.406
 l 80.402 12.406 l S Q
112.402 128.412 m 120.402 128.412 l 120.402 132.412 l 128.402 128.412 l
 120.402 124.412 l 120.402 128.412 l f
q 1 0 0 -1 0 140.818192 cm
112.402 12.406 m 120.402 12.406 l 120.402 8.406 l 128.402 12.406 l 120.402
 16.406 l 120.402 12.406 l S Q
152.402 128.412 m 160.402 128.412 l 160.402 132.412 l 168.402 128.412 l
 160.402 124.412 l 160.402 128.412 l f
q 1 0 0 -1 0 140.818192 cm
152.402 12.406 m 160.402 12.406 l 160.402 8.406 l 168.402 12.406 l 160.402
 16.406 l 160.402 12.406 l S Q
192.402 128.412 m 200.402 128.412 l 200.402 132.412 l 208.402 128.412 l
 200.402 124.412 l 200.402 128.412 l f
q 1 0 0 -1 0 140.818192 cm
192.402 12.406 m 200.402 12.406 l 200.402 8.406 l 208.402 12.406 l 200.402
 16.406 l 200.402 12.406 l S Q
232.402 128.412 m 240.402 128.412 l 240.402 132.412 l 248.402 128.412 l
 240.402 124.412 l 240.402 128.412 l f
q 1 0 0 -1 0 140.818192 cm
232.402 12.406 m 240.402 12.406 l 240.402 8.406 l 248.402 12.406 l 240.402
 16.406 l 240.402 12.406 l S Q
272.402 128.412 m 280.402 128.412 l 280.402 132.412 l 288.402 128.412 l
 280.402 124.412 l 280.402 128.412 l f
q 1 0 0 -1 0 140.818192 cm
272.402 12.406 m 280.402 12.406 l 280.402 8.406 l 288.402 12.406 l 280.402
 16.406 l 280.402 12.406 l S Q
312.402 128.412 m 336.402 128.412 l 336.402 132.412 l 344.402 128.412 l
 336.402 124.412 l 336.402 128.412 l f
q 1 0 0 -1 0 140.818192 cm
312.402 12.406 m 336.402 12.406 l 336.402 8.406 l 344.402 12.406 l 336.402
 16.406 l 336.402 12.406 l S Q
264.402 12.412 m 240.402 12.412 l 240.402 16.412 l 232.402 12.412 l 240.402
 8.412 l 240.402 12.412 l f
q 1 0 0 -1 0 140.818192 cm
264.402 128.406 m 240.402 128.406 l 240.402 124.406 l 232.402 128.406 l
 240.402 132.406 l 240.402 128.406 l S Q
88.402 12.412 m 80.402 12.412 l 80.402 16.412 l 72.402 12.412 l 80.402 
8.412 l 80.402 12.412 l f
q 1 0 0 -1 0 140.818192 cm
88.402 128.406 m 80.402 128.406 l 80.402 124.406 l 72.402 128.406 l 80.402
 132.406 l 80.402 128.406 l S Q
260.402 60.412 m 260.402 68.412 l 264.402 68.412 l 260.402 76.412 l 256.402
 68.412 l 260.402 68.412 l f
q 1 0 0 -1 0 140.818192 cm
260.402 80.406 m 260.402 72.406 l 264.402 72.406 l 260.402 64.406 l 256.402
 72.406 l 260.402 72.406 l S Q
0.8 w
q 1 0 0 -1 0 140.818192 cm
160.402 80.406 m 160.402 104.406 l 120.402 104.406 l 120.402 80.406 l h
S Q
q 1 0 0 -1 0 140.818192 cm
126.801 87.301 m 135.602 87.301 l 139.602 87.301 139.602 87.301 142.801
 86.5 c 150.563 84.559 154 98.5 154 98.5 c S Q
140.402 60.412 m 140.402 108.412 l 144.402 108.412 l 140.402 116.412 l 
136.402 108.412 l 140.402 108.412 l f
1.6 w
q 1 0 0 -1 0 140.818192 cm
140.402 80.406 m 140.402 32.406 l 144.402 32.406 l 140.402 24.406 l 136.402
 32.406 l 140.402 32.406 l S Q
208.402 12.412 m 120.402 12.412 l 120.402 16.412 l 112.402 12.412 l 120.402
 8.412 l 120.402 12.412 l f
q 1 0 0 -1 0 140.818192 cm
208.402 128.406 m 120.402 128.406 l 120.402 124.406 l 112.402 128.406 l
 120.402 132.406 l 120.402 128.406 l S Q
140.402 12.412 m 140.402 28.412 l 144.402 28.412 l 140.402 36.412 l 136.402
 28.412 l 140.402 28.412 l f
q 1 0 0 -1 0 140.818192 cm
140.402 128.406 m 140.402 112.406 l 144.402 112.406 l 140.402 104.406 l
 136.402 112.406 l 140.402 112.406 l S Q
260.402 12.412 m 260.402 28.412 l 264.402 28.412 l 260.402 36.412 l 256.402
 28.412 l 260.402 28.412 l f
q 1 0 0 -1 0 140.818192 cm
260.402 128.406 m 260.402 112.406 l 264.402 112.406 l 260.402 104.406 l
 256.402 112.406 l 260.402 112.406 l S Q
424.402 12.412 m 416.402 12.412 l 416.402 16.412 l 408.402 12.412 l 416.402
 8.412 l 416.402 12.412 l f
q 1 0 0 -1 0 140.818192 cm
424.402 128.406 m 416.402 128.406 l 416.402 124.406 l 408.402 128.406 l
 416.402 132.406 l 416.402 128.406 l S Q
q 1 0 0 -1 0 140.818192 cm
408.402 12.406 m 424.402 12.406 l 424.402 128.406 l S Q
32.402 128.412 m 40.402 128.412 l 40.402 132.412 l 48.402 128.412 l 40.402
 124.412 l 40.402 128.412 l f
q 1 0 0 -1 0 140.818192 cm
32.402 12.406 m 40.402 12.406 l 40.402 8.406 l 48.402 12.406 l 40.402 16.406
 l 40.402 12.406 l S Q
[ 1.6 3.2] 0 d
q 1 0 0 -1 0 140.818192 cm
12.402 128.406 m 12.402 32.406 l 16.402 32.406 l 12.402 24.406 l 8.402 
32.406 l 12.402 32.406 l S Q
[ 1.6 3.2] 0 d
q 1 0 0 -1 0 140.818192 cm
36.402 128.406 m 12.402 128.406 l S Q
0.8 w
[] 0.0 d
q 0 1 1 0 0 140.818192 cm
-64.406 272.402 m -64.406 248.402 l -40.406 260.402 l h
S Q
261.313 84.322 m 257.809 84.322 l 257.809 83.709 l 258.414 83.709 l 258.172
 83.541 257.992 83.353 257.867 83.142 c 257.75 82.931 257.688 82.693 257.688
 82.428 c 257.699 81.889 257.906 81.459 258.309 81.139 c 258.711 80.818 
259.258 80.654 259.945 80.646 c 260.613 80.654 261.141 80.818 261.527 81.139
 c 261.914 81.459 262.109 81.869 262.121 82.373 c 262.117 82.627 262.059
 82.861 261.941 83.072 c 261.824 83.279 261.633 83.49 261.367 83.709 c 261.648
 83.709 l 262.195 83.705 262.59 83.596 262.832 83.385 c 263.07 83.166 263.188
 82.865 263.184 82.474 c 263.184 82.205 263.129 81.978 263.023 81.799 c 
262.91 81.615 262.73 81.502 262.48 81.459 c 262.48 80.779 l 262.879 80.814
 263.188 80.978 263.406 81.271 c 263.625 81.56 263.734 81.955 263.742 82.451
 c 263.742 82.889 263.672 83.244 263.523 83.521 c 263.371 83.795 263.117
 83.998 262.762 84.131 c 262.406 84.26 261.926 84.322 261.313 84.322 c h
259.93 83.646 m 260.438 83.639 260.824 83.533 261.094 83.338 c 261.367 
83.135 261.504 82.861 261.504 82.51 c 261.504 82.142 261.363 81.853 261.086
 81.65 c 260.813 81.443 260.418 81.342 259.902 81.338 c 259.395 81.342 259.004
 81.443 258.727 81.65 c 258.449 81.853 258.309 82.139 258.305 82.502 c 258.309
 82.861 258.453 83.142 258.734 83.342 c 259.023 83.537 259.422 83.639 259.93
 83.646 c h
f
260.996 87.521 m 260.68 87.514 260.422 87.404 260.223 87.193 c 260.027 
86.974 259.926 86.693 259.914 86.342 c 259.914 85.963 260.016 85.666 260.219
 85.459 c 260.43 85.248 260.754 85.139 261.195 85.127 c 261.195 85.584 l
 260.891 85.599 260.668 85.67 260.523 85.799 c 260.387 85.92 260.316 86.096
 260.316 86.326 c 260.32 86.537 260.387 86.713 260.512 86.846 c 260.645 
86.978 260.809 87.049 261.008 87.056 c 261.156 87.053 261.289 87.01 261.41
 86.928 c 261.535 86.842 261.645 86.717 261.734 86.556 c 262.004 86.076 
l 262.148 85.822 262.293 85.623 262.434 85.474 c 262.582 85.326 262.746 
85.221 262.926 85.158 c 263.113 85.092 263.336 85.053 263.602 85.041 c 263.602
 87.498 l 263.148 87.498 l 263.148 85.556 l 263.008 85.576 262.875 85.635
 262.758 85.736 c 262.641 85.834 262.52 85.998 262.391 86.224 c 262.109 
86.744 l 261.973 86.998 261.809 87.193 261.621 87.326 c 261.434 87.455 261.227
 87.517 260.996 87.521 c h
f
260.402 100.412 m 260.402 108.412 l 264.402 108.412 l 260.402 116.412 l
 256.402 108.412 l 260.402 108.412 l f
1.6 w
q 1 0 0 -1 0 140.818192 cm
260.402 40.406 m 260.402 32.406 l 264.402 32.406 l 260.402 24.406 l 256.402
 32.406 l 260.402 32.406 l S Q
14.18 125.494 m 11.727 131.15 l 10.691 131.15 l 8.238 125.494 l h
12.469 126.615 m 9.949 126.615 l 11.215 129.517 l h
18.16 128.166 m 18.16 128.685 18.105 129.181 17.992 129.654 c 17.879 130.127
 17.691 130.514 17.43 130.822 c 17.168 131.123 16.816 131.283 16.379 131.295
 c 15.938 131.283 15.59 131.123 15.328 130.822 c 15.066 130.514 14.879 130.127
 14.766 129.654 c 14.652 129.181 14.598 128.685 14.602 128.166 c 14.602 
127.713 14.668 127.287 14.801 126.889 c 14.934 126.49 15.129 126.162 15.395
 125.912 c 15.652 125.658 15.98 125.529 16.379 125.525 c 16.77 125.529 17.098
 125.658 17.363 125.912 c 17.625 126.162 17.824 126.49 17.961 126.889 c 
18.09 127.287 18.156 127.713 18.16 128.166 c h
17.043 128.623 m 15.723 128.623 l 15.723 128.92 15.742 129.201 15.773 129.467
 c 15.805 129.732 15.867 129.947 15.961 130.119 c 16.055 130.283 16.191 
130.373 16.379 130.381 c 16.559 130.373 16.699 130.283 16.797 130.119 c 
16.887 129.947 16.949 129.732 16.984 129.467 c 17.016 129.201 17.035 128.92
 17.043 128.623 c h
17.031 127.709 m 17.027 127.369 16.984 127.072 16.898 126.826 c 16.813 
126.576 16.637 126.447 16.379 126.439 c 16.113 126.447 15.941 126.576 15.859
 126.826 c 15.77 127.072 15.727 127.369 15.73 127.709 c h
f
274.129 64.701 m 273.969 64.943 273.84 65.205 273.738 65.482 c 273.633 
65.752 273.539 66.029 273.457 66.314 c 273.563 66.674 273.652 67.037 273.73
 67.408 c 273.801 67.775 273.934 68.123 274.129 68.443 c 273.242 69.021 
l 273.117 68.83 273.02 68.631 272.953 68.424 c 272.879 68.213 272.824 67.998
 272.785 67.779 c 272.59 68.053 272.355 68.275 272.09 68.443 c 271.82 68.607
 271.52 68.693 271.188 68.701 c 270.75 68.693 270.363 68.584 270.02 68.373
 c 269.672 68.162 269.395 67.877 269.195 67.521 c 268.988 67.162 268.887
 66.767 268.883 66.334 c 268.887 65.951 268.996 65.619 269.211 65.342 c 
269.426 65.056 269.707 64.838 270.055 64.681 c 270.402 64.525 270.777 64.443
 271.188 64.443 c 271.496 64.443 271.789 64.51 272.059 64.642 c 272.328 
64.767 272.566 64.947 272.777 65.174 c 272.848 64.963 272.922 64.764 273.004
 64.58 c 273.078 64.396 273.16 64.248 273.242 64.123 c h
272.41 66.342 m 272.293 66.06 272.129 65.83 271.922 65.646 c 271.715 65.459
 271.469 65.361 271.188 65.357 c 270.863 65.357 270.59 65.447 270.363 65.623
 c 270.133 65.799 270.012 66.037 270 66.334 c 270.004 66.724 270.113 67.06
 270.324 67.342 c 270.535 67.623 270.82 67.771 271.188 67.787 c 271.414 
67.779 271.605 67.705 271.762 67.568 c 271.914 67.428 272.043 67.248 272.148
 67.033 c 272.246 66.81 272.336 66.58 272.41 66.342 c h
f
154.234 66.818 m 154.227 67.174 154.152 67.517 154.008 67.846 c 153.859
 68.17 153.664 68.463 153.418 68.732 c 152.434 68.732 l 152.672 68.467 152.844
 68.17 152.953 67.842 c 153.059 67.506 153.113 67.166 153.113 66.818 c 153.117
 66.588 153.109 66.361 153.098 66.139 c 153.078 65.916 153.035 65.732 152.969
 65.584 c 152.895 65.435 152.777 65.357 152.617 65.357 c 152.453 65.361 
152.34 65.467 152.27 65.666 c 152.199 65.865 152.156 66.111 152.141 66.408
 c 152.125 66.701 152.117 66.994 152.121 67.291 c 151.004 67.291 l 151.004
 67.08 151.012 66.877 151.027 66.674 c 151.043 66.467 151.07 66.267 151.113
 66.076 c 151.082 65.865 151.02 65.693 150.926 65.56 c 150.828 65.428 150.688
 65.357 150.5 65.357 c 150.336 65.357 150.219 65.435 150.148 65.584 c 150.078
 65.732 150.035 65.916 150.02 66.139 c 150.004 66.361 149.996 66.588 150
 66.818 c 149.996 67.166 150.051 67.506 150.16 67.842 c 150.27 68.17 150.441
 68.467 150.684 68.732 c 149.699 68.732 l 149.449 68.463 149.254 68.17 149.105
 67.846 c 148.957 67.517 148.883 67.174 148.883 66.818 c 148.883 66.408 
148.941 66.025 149.063 65.67 c 149.184 65.306 149.363 65.014 149.605 64.791
 c 149.84 64.564 150.141 64.447 150.5 64.443 c 150.727 64.443 150.922 64.498
 151.094 64.607 c 151.258 64.713 151.402 64.861 151.523 65.045 c 151.648
 64.857 151.801 64.709 151.984 64.603 c 152.164 64.498 152.375 64.443 152.617
 64.443 c 152.969 64.447 153.27 64.564 153.512 64.791 c 153.75 65.014 153.93
 65.306 154.051 65.67 c 154.172 66.025 154.23 66.408 154.234 66.818 c h
f
422.73 130.717 m 422.371 131.299 422.102 131.904 421.918 132.549 c 421.727
 133.189 421.633 133.834 421.633 134.482 c 421.633 135.123 421.727 135.767
 421.918 136.412 c 422.102 137.056 422.371 137.666 422.73 138.244 c 422.289
 138.244 l 421.883 137.705 421.563 137.103 421.336 136.439 c 421.102 135.771
 420.988 135.119 420.988 134.482 c 420.988 133.834 421.102 133.181 421.336
 132.517 c 421.563 131.853 421.883 131.256 422.289 130.717 c h
426.914 132.412 m 426.914 136.603 l 426.25 136.603 l 426.25 134.291 l 426.246
 133.857 426.145 133.514 425.941 133.264 c 425.738 133.006 425.457 132.877
 425.105 132.877 c 424.836 132.877 424.629 132.951 424.477 133.099 c 424.32
 133.24 424.242 133.443 424.242 133.701 c 424.242 136.603 l 423.578 136.603
 l 423.578 133.435 l 423.582 133.08 423.703 132.803 423.941 132.603 c 424.176
 132.4 424.5 132.299 424.914 132.291 c 425.215 132.291 425.477 132.346 425.699
 132.467 c 425.914 132.584 426.121 132.783 426.316 133.06 c 426.316 132.412
 l h
f
429.973 130.81 m 429.031 132.221 l 429.945 133.533 l 429.457 133.533 l 
428.801 132.549 l 428.145 133.533 l 427.652 133.533 l 428.563 132.197 l 
427.602 130.81 l 428.094 130.81 l 428.785 131.857 l 429.469 130.81 l h
f
431.645 132.283 m 431.645 133.244 l 430.805 133.244 l 430.805 132.412 l
 431.285 132.412 l 431.285 132.267 l 431.285 131.998 431.25 131.81 431.184
 131.705 c 431.113 131.599 430.988 131.545 430.805 131.541 c 430.805 131.236
 l 431.082 131.24 431.293 131.33 431.434 131.502 c 431.574 131.681 431.645
 131.939 431.645 132.283 c h
438.402 132.412 m 438.402 136.603 l 437.738 136.603 l 437.738 134.291 l
 437.734 133.857 437.633 133.514 437.43 133.264 c 437.227 133.006 436.945
 132.877 436.594 132.877 c 436.324 132.877 436.117 132.951 435.965 133.099
 c 435.809 133.24 435.73 133.443 435.73 133.701 c 435.73 136.603 l 435.066
 136.603 l 435.066 133.435 l 435.07 133.08 435.191 132.803 435.43 132.603
 c 435.664 132.4 435.988 132.299 436.402 132.291 c 436.703 132.291 436.965
 132.346 437.188 132.467 c 437.402 132.584 437.609 132.783 437.805 133.06
 c 437.805 132.412 l h
f
441.484 133.533 m 441.02 133.533 l 440.262 131.412 l 439.566 133.533 l 
439.105 133.533 l 440.023 130.799 l 439.859 130.369 l 439.82 130.275 439.777
 130.205 439.727 130.162 c 439.672 130.123 439.598 130.103 439.508 130.103
 c 439.477 130.107 439.441 130.111 439.406 130.111 c 439.367 130.119 439.328
 130.127 439.281 130.135 c 439.281 129.744 l 439.324 129.721 439.367 129.705
 439.418 129.693 c 439.461 129.685 439.512 129.681 439.57 129.678 c 439.723
 129.681 439.863 129.724 439.984 129.814 c 440.102 129.904 440.195 130.045
 440.273 130.236 c h
f
443.648 134.474 m 443.641 135.119 443.523 135.771 443.297 136.439 c 443.063
 137.103 442.746 137.705 442.348 138.244 c 441.906 138.244 l 442.258 137.662
 442.527 137.053 442.719 136.408 c 442.902 135.764 442.996 135.119 443.004
 134.474 c 442.996 133.834 442.902 133.189 442.719 132.545 c 442.527 131.9
 442.258 131.295 441.906 130.717 c 442.348 130.717 l 442.746 131.256 443.063
 131.853 443.297 132.517 c 443.523 133.181 443.641 133.834 443.648 134.474
 c h
f
1 g
384.402 12.412 m 384.402 19.037 389.773 24.412 396.402 24.412 c 403.027
 24.412 408.402 19.037 408.402 12.412 c 408.402 5.783 403.027 0.412 396.402
 0.412 c 389.773 0.412 384.402 5.783 384.402 12.412 c h
f
0 g
0.8 w
q -1 0 0 1 0 140.818192 cm
-384.402 -128.406 m -384.402 -121.781 -389.773 -116.406 -396.402 -116.406
 c -403.027 -116.406 -408.402 -121.781 -408.402 -128.406 c -408.402 -135.035
 -403.027 -140.406 -396.402 -140.406 c -389.773 -140.406 -384.402 -135.035
 -384.402 -128.406 c h
S Q
0 j
q -1 0 0 1 0 140.818192 cm
-398.801 -120.406 m -394 -120.406 l S Q
q -1 0 0 1 0 140.818192 cm
-404.402 -130.809 m -404.402 -126.008 l S Q
q -1 0 0 1 0 140.818192 cm
-406.801 -128.406 m -402 -128.406 l S Q
1 j
q -1 0 0 -1 0 140.818192 cm
-368.402 140.406 m -368.402 116.406 l -344.402 128.406 l h
S Q
355.18 10.01 m 355.18 15.681 l 354.715 15.681 l 354.637 15.392 354.551 
15.174 354.457 15.029 c 354.359 14.881 354.219 14.775 354.035 14.713 c 353.844
 14.646 353.57 14.592 353.219 14.553 c 353.219 14.049 l 354.477 14.049 l
 354.477 10.01 l h
359.129 15.842 m 358.688 15.842 l 356.793 9.849 l 357.23 9.849 l h
362.523 13.568 m 362.523 14.178 l 359.617 14.178 l 359.617 13.568 l 360.738
 13.568 l 360.738 11.267 l 360.746 10.892 360.859 10.576 361.082 10.318 
c 361.301 10.06 361.59 9.928 361.945 9.912 c 361.945 10.521 l 361.77 10.525
 361.633 10.603 361.539 10.752 c 361.441 10.896 361.395 11.068 361.395 11.267
 c 361.395 13.568 l h
f
367.012 8.412 m 367.012 10.455 l 367.008 10.697 366.941 10.885 366.809 
11.017 c 366.676 11.146 366.48 11.213 366.23 11.213 c 366.051 11.213 365.898
 11.181 365.77 11.119 c 365.641 11.056 365.516 10.947 365.395 10.799 c 365.313
 10.939 365.215 11.045 365.098 11.115 c 364.98 11.178 364.832 11.213 364.66
 11.213 c 364.477 11.213 364.32 11.174 364.191 11.103 c 364.059 11.025 363.938
 10.908 363.824 10.752 c 363.824 11.135 l 363.43 11.135 l 363.43 8.412 l
 363.859 8.412 l 363.859 10.123 l 363.863 10.326 363.926 10.494 364.047 
10.627 c 364.164 10.76 364.316 10.826 364.5 10.834 c 364.66 10.83 364.781
 10.783 364.871 10.693 c 364.957 10.596 365.004 10.463 365.004 10.291 c 
365.004 8.412 l 365.434 8.412 l 365.434 10.123 l 365.434 10.326 365.5 10.494
 365.625 10.627 c 365.746 10.76 365.895 10.826 366.078 10.834 c 366.234 
10.83 366.359 10.783 366.449 10.689 c 366.531 10.592 366.574 10.459 366.578
 10.291 c 366.578 8.412 l h
f
384.402 12.412 m 376.402 12.412 l 376.402 16.412 l 368.402 12.412 l 376.402
 8.412 l 376.402 12.412 l f
1.6 w
q 1 0 0 -1 0 140.818192 cm
384.402 128.406 m 376.402 128.406 l 376.402 124.406 l 368.402 128.406 l
 376.402 132.406 l 376.402 128.406 l S Q
344.402 12.412 m 336.402 12.412 l 336.402 16.412 l 328.402 12.412 l 336.402
 8.412 l 336.402 12.412 l f
q 1 0 0 -1 0 140.818192 cm
344.402 128.406 m 336.402 128.406 l 336.402 124.406 l 328.402 128.406 l
 336.402 132.406 l 336.402 128.406 l S Q
396.402 40.412 m 396.402 32.412 l 400.402 32.412 l 396.402 24.412 l 392.402
 32.412 l 396.402 32.412 l f
q 1 0 0 -1 0 140.818192 cm
396.402 100.406 m 396.402 108.406 l 400.402 108.406 l 396.402 116.406 l
 392.402 108.406 l 396.402 108.406 l S Q
q 1 0 0 -1 0 140.818192 cm
396.402 100.406 m 300.402 100.406 l 300.402 128.406 l S Q
304.402 12.412 m 296.402 12.412 l 296.402 16.412 l 288.402 12.412 l 296.402
 8.412 l 296.402 12.412 l f
q 1 0 0 -1 0 140.818192 cm
304.402 128.406 m 296.402 128.406 l 296.402 124.406 l 288.402 128.406 l
 296.402 132.406 l 296.402 128.406 l S Q
0.8 w
q -1 0 0 -1 0 140.818192 cm
-288.402 140.406 m -288.402 116.406 l -264.402 128.406 l h
S Q
282.074 9.209 m 282.074 12.287 l 279.641 12.287 l 279.641 11.635 l 281.418
 11.635 l 281.418 11.474 l 281.406 10.943 281.23 10.521 280.898 10.205 c
 280.563 9.889 280.125 9.724 279.586 9.721 c 278.918 9.728 278.406 9.947
 278.047 10.377 c 277.684 10.803 277.5 11.381 277.496 12.103 c 277.504 12.83
 277.691 13.412 278.059 13.853 c 278.422 14.291 278.918 14.517 279.547 14.529
 c 279.992 14.521 280.363 14.404 280.664 14.181 c 280.957 13.955 281.148
 13.65 281.234 13.271 c 281.992 13.271 l 281.883 13.865 281.617 14.334 281.195
 14.674 c 280.773 15.006 280.227 15.178 279.555 15.185 c 278.957 15.178 
278.449 15.033 278.035 14.76 c 277.617 14.482 277.301 14.111 277.082 13.646
 c 276.863 13.178 276.754 12.65 276.754 12.064 c 276.766 11.15 277.012 10.428
 277.5 9.892 c 277.98 9.353 278.625 9.08 279.426 9.064 c 279.816 9.068 280.176
 9.139 280.504 9.283 c 280.832 9.428 281.137 9.658 281.418 9.978 c 281.602
 9.209 l h
f
q 1 0 0 -1 0 140.818192 cm
344.402 24.406 m 344.402 0.406 l 368.402 12.406 l h
S Q
347.18 126.81 m 347.18 132.482 l 346.715 132.482 l 346.637 132.193 346.551
 131.974 346.457 131.83 c 346.359 131.681 346.219 131.576 346.035 131.514
 c 345.844 131.447 345.57 131.392 345.219 131.353 c 345.219 130.849 l 346.477
 130.849 l 346.477 126.81 l h
351.129 132.642 m 350.688 132.642 l 348.793 126.65 l 349.23 126.65 l h
356.746 126.81 m 356.746 129.889 l 354.313 129.889 l 354.313 129.236 l 
356.09 129.236 l 356.09 129.076 l 356.078 128.545 355.902 128.123 355.57
 127.806 c 355.234 127.49 354.797 127.326 354.258 127.322 c 353.59 127.33
 353.078 127.549 352.719 127.978 c 352.355 128.404 352.172 128.982 352.168
 129.705 c 352.176 130.431 352.363 131.014 352.73 131.455 c 353.094 131.892
 353.59 132.119 354.219 132.131 c 354.664 132.123 355.035 132.006 355.336
 131.783 c 355.629 131.556 355.82 131.252 355.906 130.873 c 356.664 130.873
 l 356.555 131.467 356.289 131.935 355.867 132.275 c 355.445 132.607 354.898
 132.779 354.227 132.787 c 353.629 132.779 353.121 132.635 352.707 132.361
 c 352.289 132.084 351.973 131.713 351.754 131.248 c 351.535 130.779 351.426
 130.252 351.426 129.666 c 351.438 128.752 351.684 128.029 352.172 127.494
 c 352.652 126.955 353.297 126.681 354.098 126.666 c 354.488 126.67 354.848
 126.74 355.176 126.885 c 355.504 127.029 355.809 127.26 356.09 127.58 c
 356.273 126.81 l h
f
359.961 126.447 m 359.957 126.639 359.949 126.806 359.934 126.943 c 359.914
 127.076 359.887 127.193 359.852 127.295 c 359.758 127.517 359.617 127.689
 359.426 127.818 c 359.23 127.943 359.004 128.01 358.75 128.01 c 358.363
 128.006 358.059 127.873 357.84 127.619 c 357.613 127.357 357.5 127.006 
357.5 126.556 c 357.5 126.103 357.613 125.752 357.832 125.506 c 358.051 
125.26 358.352 125.139 358.738 125.131 c 359.051 125.139 359.309 125.217
 359.512 125.377 c 359.711 125.537 359.84 125.756 359.902 126.037 c 359.469
 126.037 l 359.402 125.853 359.313 125.724 359.195 125.646 c 359.074 125.564
 358.926 125.525 358.754 125.529 c 358.52 125.525 358.332 125.599 358.188
 125.752 c 358.039 125.9 357.961 126.131 357.953 126.447 c h
359.5 126.83 m 359.496 126.826 359.496 126.822 359.496 126.818 c 359.496
 126.81 359.492 126.803 359.492 126.799 c 357.965 126.799 l 357.984 127.041
 358.063 127.24 358.203 127.389 c 358.34 127.533 358.52 127.607 358.742 
127.611 c 358.957 127.603 359.137 127.525 359.281 127.381 c 359.418 127.228
 359.492 127.045 359.5 126.83 c h
f
368.402 128.412 m 376.402 128.412 l 376.402 132.412 l 384.402 128.412 l
 376.402 124.412 l 376.402 128.412 l f
1.6 w
q 1 0 0 -1 0 140.818192 cm
368.402 12.406 m 376.402 12.406 l 376.402 8.406 l 384.402 12.406 l 376.402
 16.406 l 376.402 12.406 l S Q
Q Q
showpage
%%Trailer
count op_count sub {pop} repeat
countdictstack dict_count sub {end} repeat
cairo_eps_state restore
%%EOF
