%!PS-Adobe-3.0 EPSF-3.0
%%Creator: cairo 1.11.2 (http://cairographics.org)
%%CreationDate: Fri Jan 30 16:29:41 2015
%%Pages: 1
%%DocumentData: Clean7Bit
%%LanguageLevel: 2
%%BoundingBox: 0 -1 213 189
%%EndComments
%%BeginProlog
/cairo_eps_state save def
/dict_count countdictstack def
/op_count count 1 sub def
userdict begin
/q { gsave } bind def
/Q { grestore } bind def
/cm { 6 array astore concat } bind def
/w { setlinewidth } bind def
/J { setlinecap } bind def
/j { setlinejoin } bind def
/M { setmiterlimit } bind def
/d { setdash } bind def
/m { moveto } bind def
/l { lineto } bind def
/c { curveto } bind def
/h { closepath } bind def
/re { exch dup neg 3 1 roll 5 3 roll moveto 0 rlineto
      0 exch rlineto 0 rlineto closepath } bind def
/S { stroke } bind def
/f { fill } bind def
/f* { eofill } bind def
/n { newpath } bind def
/W { clip } bind def
/W* { eoclip } bind def
/BT { } bind def
/ET { } bind def
/pdfmark where { pop globaldict /?pdfmark /exec load put }
    { globaldict begin /?pdfmark /pop load def /pdfmark
    /cleartomark load def end } ifelse
/BDC { mark 3 1 roll /BDC pdfmark } bind def
/EMC { mark /EMC pdfmark } bind def
/cairo_store_point { /cairo_point_y exch def /cairo_point_x exch def } def
/Tj { show currentpoint cairo_store_point } bind def
/TJ {
  {
    dup
    type /stringtype eq
    { show } { -0.001 mul 0 cairo_font_matrix dtransform rmoveto } ifelse
  } forall
  currentpoint cairo_store_point
} bind def
/cairo_selectfont { cairo_font_matrix aload pop pop pop 0 0 6 array astore
    cairo_font exch selectfont cairo_point_x cairo_point_y moveto } bind def
/Tf { pop /cairo_font exch def /cairo_font_matrix where
      { pop cairo_selectfont } if } bind def
/Td { matrix translate cairo_font_matrix matrix concatmatrix dup
      /cairo_font_matrix exch def dup 4 get exch 5 get cairo_store_point
      /cairo_font where { pop cairo_selectfont } if } bind def
/Tm { 2 copy 8 2 roll 6 array astore /cairo_font_matrix exch def
      cairo_store_point /cairo_font where { pop cairo_selectfont } if } bind def
/g { setgray } bind def
/rg { setrgbcolor } bind def
/d1 { setcachedevice } bind def
%%EndProlog
%%Page: 1 1
%%BeginPageSetup
%%PageBoundingBox: 0 -1 213 189
%%EndPageSetup
q 0 -1 213 190 rectclip q
0 188.124 213 -189 re W n
1 g
36.684 159.085 m 30.883 151.484 l 27.973 150.988 25.43 148.745 24.574 145.917
 c 23.719 143.093 24.586 139.816 26.734 137.784 c 77.207 88.734 l 49.582
 87.187 l 40.707 93.984 l 34.809 86.284 l 32.828 85.917 31.004 84.769 29.816
 83.14 c 28.625 81.515 28.086 79.429 28.336 77.429 c 28.586 75.433 29.621
 73.542 31.172 72.257 c 32.723 70.972 34.773 70.308 36.785 70.437 c 92.809
 73.609 l 153.457 14.687 l 155.762 12.386 159.543 11.718 162.492 13.093 
c 165.445 14.468 167.363 17.792 167.082 21.034 c 172.934 28.659 l 163.41
 35.96 l 159.609 31.011 l 114.508 74.835 l 155.035 77.109 l 157.238 77.159
 159.406 78.171 160.863 79.827 c 162.32 81.488 163.043 83.765 162.809 85.96
 c 168.484 93.359 l 158.984 100.659 l 153.109 93.034 l 98.934 89.96 l 41.559
 145.71 l 46.207 151.761 l h
f
0 g
0.8 w
0 J
0 j
[] 0.0 d
4 M q 1 0 0 -1 0 188.124283 cm
36.684 29.039 m 30.883 36.641 l 27.973 37.137 25.43 39.379 24.574 42.207
 c 23.719 45.031 24.586 48.309 26.734 50.34 c 77.207 99.391 l 49.582 100.938
 l 40.707 94.141 l 34.809 101.84 l 32.828 102.207 31.004 103.355 29.816 
104.984 c 28.625 106.609 28.086 108.695 28.336 110.695 c 28.586 112.691 
29.621 114.582 31.172 115.867 c 32.723 117.152 34.773 117.816 36.785 117.688
 c 92.809 114.516 l 153.457 173.438 l 155.762 175.738 159.543 176.406 162.492
 175.031 c 165.445 173.656 167.363 170.332 167.082 167.09 c 172.934 159.465
 l 163.41 152.164 l 159.609 157.113 l 114.508 113.289 l 155.035 111.016 
l 157.238 110.965 159.406 109.953 160.863 108.297 c 162.32 106.637 163.043
 104.359 162.809 102.164 c 168.484 94.766 l 158.984 87.465 l 153.109 95.09
 l 98.934 98.164 l 41.559 42.414 l 46.207 36.363 l h
S Q
1 g
82.34 136.085 m 83.32 121.796 65.805 118.866 43.219 129.546 c 20.633 140.226
 1.527 160.472 0.551 174.761 c -0.43 189.054 17.09 191.984 39.676 181.3 
c 62.262 170.62 81.363 150.378 82.34 136.085 c h
f
0 g
1.022395 w
1 J
1 j
q 1 -0.472872 0.0433201 -0.632754 0 188.124283 cm
81.413 21.4 m 81.415 43.981 63.106 62.294 40.52 62.295 c 17.934 62.296 
-0.378 43.984 -0.376 21.4 c -0.378 -1.187 17.935 -19.502 40.52 -19.497 c
 63.106 -19.498 81.415 -1.19 81.413 21.4 c h
S Q
1 g
86.77 71.394 m 87.75 57.101 70.234 54.175 47.648 64.855 c 25.059 75.534
 5.957 95.781 4.98 110.07 c 4 124.363 21.516 127.288 44.102 116.609 c 66.691
 105.929 85.793 85.687 86.77 71.394 c h
f
0 g
q 1 -0.472872 0.0433201 -0.632754 0 188.124283 cm
81.414 123.638 m 81.416 146.225 63.107 164.531 40.521 164.532 c 17.931 
164.536 -0.377 146.221 -0.376 123.638 c -0.378 101.051 17.931 82.744 40.517
 82.743 c 63.107 82.739 81.416 101.048 81.414 123.638 c h
S Q
1 g
205.027 78.07 m 206.008 63.781 188.492 60.851 165.906 71.531 c 143.32 82.214
 124.215 102.456 123.238 116.749 c 122.258 131.038 139.777 133.968 162.363
 123.284 c 184.949 112.605 204.051 92.363 205.027 78.07 c h
f
0 g
q 1 -0.472872 0.0433201 -0.632754 0 188.124283 cm
204.1 21.401 m 204.103 43.981 185.794 62.294 163.208 62.295 c 140.622 62.289
 122.309 43.984 122.311 21.394 c 122.309 -1.186 140.622 -19.502 163.208 
-19.497 c 185.794 -19.498 204.102 -1.189 204.1 21.401 c h
S Q
1 g
209.457 13.378 m 210.438 -0.915 192.922 -3.841 170.332 6.839 c 147.746 
17.519 128.645 37.765 127.668 52.054 c 126.688 66.347 144.203 69.273 166.789
 58.593 c 189.375 47.913 208.48 27.671 209.457 13.378 c h
f
0 g
q 1 -0.472872 0.0433201 -0.632754 0 188.124283 cm
204.101 123.638 m 204.103 146.225 185.794 164.531 163.204 164.535 c 140.618
 164.536 122.31 146.221 122.312 123.638 c 122.31 101.051 140.619 82.744 
163.205 82.743 c 185.791 82.743 204.103 101.048 204.101 123.638 c h
S Q
0 0.666667 0 rg
100.582 159.585 m 100.141 159.585 99.742 159.152 99.785 158.71 c 104.207
 94.011 l 104.242 93.593 104.652 93.241 105.07 93.273 c 105.492 93.304 105.84
 93.718 105.809 94.136 c 101.383 158.812 l 101.371 159.222 100.996 159.585
 100.582 159.585 c h
f
100.707 156.847 m 102.41 155.359 l 100.434 160.839 l 99.219 155.14 l h
f*
0.4 w
0 J
0 j
q 1 0 0 -1 0 188.124283 cm
100.707 31.277 m 102.41 32.766 l 100.434 27.285 l 99.219 32.984 l h
S Q
0.666667 0 0 rg
104.957 94.886 m 104.582 94.894 104.223 94.605 104.152 94.238 c 104.082
 93.87 104.309 93.464 104.66 93.335 c 206.91 45.011 l 207.289 44.741 207.895
 44.902 208.094 45.324 c 208.293 45.741 208.031 46.312 207.582 46.437 c 
105.332 94.784 l 105.219 94.847 105.09 94.882 104.957 94.886 c h
f
205.508 46.546 m 203.379 45.784 l 209.125 44.835 l 204.746 48.675 l h
f*
q 1 0 0 -1 0 188.124283 cm
205.508 141.578 m 203.379 142.34 l 209.125 143.289 l 204.746 139.449 l 
h
S Q
0 0.266667 0.666667 rg
159.082 165.386 m 158.848 165.37 158.625 165.249 158.484 165.062 c 104.359
 94.562 l 104.105 94.226 104.176 93.691 104.508 93.437 c 104.844 93.179 
105.379 93.253 105.633 93.585 c 159.758 164.085 l 160.145 164.566 159.699
 165.425 159.082 165.386 c h
f
157.945 163.042 m 158.238 160.8 l 160.379 166.214 l 155.703 162.749 l h
f*
q 1 0 0 -1 0 188.124283 cm
157.945 25.082 m 158.238 27.324 l 160.379 21.91 l 155.703 25.375 l h
S Q
0.666667 0.533333 0 rg
89.883 151.234 m 89.43 151.167 89.102 150.648 89.234 150.21 c 104.234 93.859
 l 104.344 93.456 104.816 93.187 105.223 93.296 c 105.629 93.409 105.895
 93.878 105.785 94.284 c 90.785 150.636 l 90.691 151.019 90.273 151.296 
89.883 151.234 c h
f
90.512 148.57 m 92.469 147.433 l 89.484 152.433 l 89.379 146.613 l h
f*
q 1 0 0 -1 0 188.124283 cm
90.512 39.555 m 92.469 40.691 l 89.484 35.691 l 89.379 41.512 l h
S Q
0 g
0.8 w
1 J
1 j
[ 0.8 2.4] 0 d
q 1 0 0 -1 0 188.124283 cm
90.02 37.699 m 91.605 60.887 l 76.496 80.574 l S Q
[ 0.8 2.4] 0 d
q 1 0 0 -1 0 188.124283 cm
91.605 60.887 m 105.004 94.055 l S Q
[ 0.8 2.4] 0 d
q 1 0 0 -1 0 188.124283 cm
76.496 80.574 m 90.02 37.699 l S Q
[ 0.8 2.4] 0 d
q 1 0 0 -1 0 188.124283 cm
91.605 60.887 m 120.113 74.367 l S Q
0.838866 w
[] 0.0 d
q 0.909483 0 0 -1 0 188.124283 cm
91.471 59.281 m 94.035 60.172 96.419 61.516 98.511 63.25 c S Q
0.8 w
q 1 0 0 -1 0 188.124283 cm
99.043 78.781 m 104.406 77.441 110.223 77.969 115.074 80.23 c S Q
0.666667 0 0 rg
212.773 46.437 m 210.711 49.429 l 212.68 52.269 l 211.789 52.269 l 210.285
 49.98 l 208.789 52.269 l 207.887 52.269 l 209.82 49.429 l 207.758 46.437
 l 208.66 46.437 l 210.262 48.87 l 211.855 46.437 l h
f
0 0.666667 0 rg
105.723 166.671 m 104.832 166.671 l 103.168 163.831 l 101.457 166.671 l
 100.539 166.671 l 102.785 163.128 l 102.785 160.839 l 103.527 160.839 l
 103.527 163.128 l h
f
0 0.266667 0.666667 rg
165.043 166.214 m 165.043 166.87 l 161.539 166.87 l 165.027 171.374 l 165.027
 172.046 l 160.828 172.046 l 160.828 171.39 l 164.105 171.39 l 160.602 166.87
 l 160.602 166.214 l h
f
0 g
119.535 99.628 m 116.977 105.347 l 116.375 105.347 l 113.816 99.628 l h
118.52 100.284 m 114.832 100.284 l 116.672 104.413 l h
123.625 102.445 m 123.625 102.956 123.566 103.449 123.453 103.925 c 123.336
 104.394 123.148 104.781 122.887 105.085 c 122.625 105.386 122.277 105.546
 121.84 105.558 c 121.402 105.546 121.055 105.386 120.797 105.085 c 120.535
 104.781 120.344 104.394 120.23 103.925 c 120.113 103.449 120.059 102.956
 120.063 102.445 c 120.059 101.952 120.121 101.488 120.246 101.05 c 120.367
 100.609 120.559 100.249 120.824 99.968 c 121.086 99.687 121.426 99.542 
121.84 99.531 c 122.254 99.542 122.594 99.687 122.859 99.968 c 123.121 100.249
 123.313 100.609 123.438 101.05 c 123.559 101.488 123.621 101.952 123.625
 102.445 c h
122.969 102.749 m 120.719 102.749 l 120.723 103.116 120.754 103.468 120.813
 103.8 c 120.871 104.132 120.98 104.402 121.141 104.616 c 121.301 104.827
 121.535 104.941 121.84 104.949 c 122.145 104.941 122.379 104.827 122.543
 104.616 c 122.703 104.402 122.813 104.132 122.871 103.8 c 122.93 103.468
 122.961 103.116 122.969 102.749 c h
122.961 102.14 m 122.949 101.796 122.91 101.476 122.844 101.175 c 122.773
 100.87 122.66 100.62 122.5 100.433 c 122.34 100.238 122.121 100.14 121.84
 100.14 c 121.559 100.14 121.336 100.238 121.18 100.433 c 121.02 100.62 
120.906 100.87 120.84 101.175 c 120.77 101.476 120.734 101.796 120.727 102.14
 c h
f
126.645 100.749 m 126.18 100.749 l 125.422 98.628 l 124.727 100.749 l 124.266
 100.749 l 125.184 98.015 l 125.02 97.585 l 124.98 97.491 124.938 97.421
 124.887 97.378 c 124.832 97.339 124.758 97.32 124.668 97.32 c 124.637 97.324
 124.602 97.327 124.566 97.327 c 124.527 97.335 124.488 97.343 124.441 97.351
 c 124.441 96.96 l 124.484 96.937 124.527 96.921 124.578 96.909 c 124.621
 96.902 124.672 96.898 124.73 96.894 c 124.883 96.898 125.023 96.941 125.145
 97.031 c 125.262 97.12 125.355 97.261 125.434 97.452 c h
f
70.832 128.476 m 68.273 134.195 l 67.672 134.195 l 65.113 128.476 l h
69.816 129.132 m 66.129 129.132 l 67.969 133.261 l h
74.922 131.292 m 74.922 131.804 74.863 132.296 74.75 132.773 c 74.633 133.241
 74.445 133.628 74.184 133.933 c 73.922 134.234 73.574 134.394 73.137 134.406
 c 72.699 134.394 72.352 134.234 72.094 133.933 c 71.832 133.628 71.641 
133.241 71.527 132.773 c 71.41 132.296 71.355 131.804 71.359 131.292 c 71.355
 130.8 71.418 130.335 71.543 129.898 c 71.664 129.456 71.855 129.097 72.121
 128.816 c 72.383 128.534 72.723 128.39 73.137 128.378 c 73.551 128.39 73.891
 128.534 74.156 128.816 c 74.418 129.097 74.609 129.456 74.734 129.898 c
 74.855 130.335 74.918 130.8 74.922 131.292 c h
74.266 131.597 m 72.016 131.597 l 72.02 131.964 72.051 132.316 72.109 132.648
 c 72.168 132.98 72.277 133.249 72.438 133.464 c 72.598 133.675 72.832 133.788
 73.137 133.796 c 73.441 133.788 73.676 133.675 73.84 133.464 c 74 133.249
 74.109 132.98 74.168 132.648 c 74.227 132.316 74.258 131.964 74.266 131.597
 c h
74.258 130.988 m 74.246 130.644 74.207 130.324 74.141 130.023 c 74.07 129.718
 73.957 129.468 73.797 129.281 c 73.637 129.085 73.418 128.988 73.137 128.988
 c 72.855 128.988 72.633 129.085 72.477 129.281 c 72.316 129.468 72.203 
129.718 72.137 130.023 c 72.066 130.324 72.031 130.644 72.023 130.988 c 
h
f
77.918 126.874 m 76.977 128.284 l 77.891 129.597 l 77.402 129.597 l 76.746
 128.613 l 76.09 129.597 l 75.598 129.597 l 76.508 128.261 l 75.547 126.874
 l 76.039 126.874 l 76.73 127.921 l 77.414 126.874 l h
f
Q Q
showpage
%%Trailer
count op_count sub {pop} repeat
countdictstack dict_count sub {end} repeat
cairo_eps_state restore
%%EOF
